<?xml version="1.0" encoding="UTF-8" standalone="no"?>
<!DOCTYPE svg PUBLIC "-//W3C//DTD SVG 1.1//EN"
 "http://www.w3.org/Graphics/SVG/1.1/DTD/svg11.dtd">
<!-- Generated by graphviz version 2.44.1 (0)
 -->
<!-- Title: func 0x5555555569f8 Pages: 1 -->
<svg width="646pt" height="303pt"
 viewBox="0.00 0.00 646.00 303.00" xmlns="http://www.w3.org/2000/svg" xmlns:xlink="http://www.w3.org/1999/xlink">
<g id="graph0" class="graph" transform="scale(1 1) rotate(0) translate(4 299)">
<title>func 0x5555555569f8</title>
<polygon fill="white" stroke="transparent" points="-4,4 -4,-299 642,-299 642,4 -4,4"/>
<g id="clust1" class="cluster">
<title>cluster_01</title>
<polygon fill="none" stroke="black" points="8,-88 8,-230 214,-230 214,-88 8,-88"/>
<text text-anchor="middle" x="111" y="-214.8" font-family="Times,serif" font-size="14.00">Legend</text>
</g>
<!-- key -->
<g id="node1" class="node">
<title>key</title>
<text text-anchor="start" x="27" y="-181.3" font-family="Times,serif" font-size="14.00">Jump/Fallthrough</text>
<text text-anchor="start" x="101" y="-162.3" font-family="Times,serif" font-size="14.00">Call</text>
<text text-anchor="start" x="26" y="-143.3" font-family="Times,serif" font-size="14.00">Conditional Jump</text>
<text text-anchor="start" x="33" y="-124.3" font-family="Times,serif" font-size="14.00">Conditional Call</text>
<text text-anchor="start" x="93" y="-105.3" font-family="Times,serif" font-size="14.00">Other</text>
</g>
<!-- key2 -->
<g id="node2" class="node">
<title>key2</title>
<text text-anchor="start" x="177" y="-181.3" font-family="Times,serif" font-size="14.00"> </text>
<text text-anchor="start" x="177" y="-162.3" font-family="Times,serif" font-size="14.00"> </text>
<text text-anchor="start" x="177" y="-143.3" font-family="Times,serif" font-size="14.00"> </text>
<text text-anchor="start" x="177" y="-124.3" font-family="Times,serif" font-size="14.00"> </text>
<text text-anchor="start" x="177" y="-105.3" font-family="Times,serif" font-size="14.00"> </text>
</g>
<!-- key&#45;&gt;key2 -->
<g id="edge1" class="edge">
<title>key:e&#45;&gt;key2:w</title>
<path fill="none" stroke="gray" stroke-dasharray="5,2" d="M127,-185.5C143.97,-185.5 150.6,-185.5 163.7,-185.5"/>
<polygon fill="gray" stroke="gray" points="164,-189 174,-185.5 164,-182 164,-189"/>
</g>
<!-- key&#45;&gt;key2 -->
<g id="edge2" class="edge">
<title>key:e&#45;&gt;key2:w</title>
<path fill="none" stroke="#008b8b" stroke-dasharray="5,2" d="M127,-166.5C143.97,-166.5 150.6,-166.5 163.7,-166.5"/>
<polygon fill="#008b8b" stroke="#008b8b" points="164,-170 174,-166.5 164,-163 164,-170"/>
</g>
<!-- key&#45;&gt;key2 -->
<g id="edge3" class="edge">
<title>key:e&#45;&gt;key2:w</title>
<path fill="none" stroke="gray" d="M127,-146.5C143.97,-146.5 150.6,-146.5 163.7,-146.5"/>
<polygon fill="gray" stroke="gray" points="164,-150 174,-146.5 164,-143 164,-150"/>
</g>
<!-- key&#45;&gt;key2 -->
<g id="edge4" class="edge">
<title>key:e&#45;&gt;key2:w</title>
<path fill="none" stroke="#008b8b" d="M127,-127.5C143.97,-127.5 150.6,-127.5 163.7,-127.5"/>
<polygon fill="#008b8b" stroke="#008b8b" points="164,-131 174,-127.5 164,-124 164,-131"/>
</g>
<!-- key&#45;&gt;key2 -->
<g id="edge5" class="edge">
<title>key:e&#45;&gt;key2:w</title>
<path fill="none" stroke="gray" stroke-dasharray="1,5" d="M127,-108.5C143.97,-108.5 150.6,-108.5 163.7,-108.5"/>
<polygon fill="gray" stroke="gray" points="164,-112 174,-108.5 164,-105 164,-112"/>
</g>
<!-- bb_5555555569f8 -->
<g id="node3" class="node">
<title>bb_5555555569f8</title>
<text text-anchor="start" x="235" y="-276.3" font-family="monospace" font-size="14.00">5555555569f8: </text>
<text text-anchor="start" x="355" y="-276.3" font-family="monospace" font-size="14.00">PUSH RBP</text>
<text text-anchor="start" x="615" y="-276.3" font-family="Times,serif" font-size="14.00">   </text>
<text text-anchor="start" x="235" y="-257.3" font-family="monospace" font-size="14.00">5555555569f9: </text>
<text text-anchor="start" x="355" y="-257.3" font-family="monospace" font-size="14.00">MOV RBP,RSP</text>
<text text-anchor="start" x="615" y="-257.3" font-family="Times,serif" font-size="14.00">   </text>
<text text-anchor="start" x="235" y="-238.3" font-family="monospace" font-size="14.00">5555555569fc: </text>
<text text-anchor="start" x="355" y="-238.3" font-family="monospace" font-size="14.00">SUB RSP,0x20</text>
<text text-anchor="start" x="615" y="-238.3" font-family="Times,serif" font-size="14.00">   </text>
<text text-anchor="start" x="235" y="-219.3" font-family="monospace" font-size="14.00">555555556a00: </text>
<text text-anchor="start" x="355" y="-219.3" font-family="monospace" font-size="14.00">MOV qword ptr [RBP + &#45;0x8],RDI</text>
<text text-anchor="start" x="615" y="-219.3" font-family="Times,serif" font-size="14.00">   </text>
<text text-anchor="start" x="235" y="-200.3" font-family="monospace" font-size="14.00">555555556a04: </text>
<text text-anchor="start" x="355" y="-200.3" font-family="monospace" font-size="14.00">MOV qword ptr [RBP + &#45;0x10],RSI</text>
<text text-anchor="start" x="615" y="-200.3" font-family="Times,serif" font-size="14.00">   </text>
<text text-anchor="start" x="235" y="-181.3" font-family="monospace" font-size="14.00">555555556a08: </text>
<text text-anchor="start" x="355" y="-181.3" font-family="monospace" font-size="14.00">MOV qword ptr [RBP + &#45;0x18],RDX</text>
<text text-anchor="start" x="615" y="-181.3" font-family="Times,serif" font-size="14.00">   </text>
<text text-anchor="start" x="235" y="-162.3" font-family="monospace" font-size="14.00">555555556a0c: </text>
<text text-anchor="start" x="355" y="-162.3" font-family="monospace" font-size="14.00">MOV RDX,qword ptr [RBP + &#45;0x18]</text>
<text text-anchor="start" x="615" y="-162.3" font-family="Times,serif" font-size="14.00">   </text>
<text text-anchor="start" x="235" y="-143.3" font-family="monospace" font-size="14.00">555555556a10: </text>
<text text-anchor="start" x="355" y="-143.3" font-family="monospace" font-size="14.00">MOV RCX,qword ptr [RBP + &#45;0x10]</text>
<text text-anchor="start" x="615" y="-143.3" font-family="Times,serif" font-size="14.00">   </text>
<text text-anchor="start" x="235" y="-124.3" font-family="monospace" font-size="14.00">555555556a14: </text>
<text text-anchor="start" x="355" y="-124.3" font-family="monospace" font-size="14.00">MOV RAX,qword ptr [RBP + &#45;0x8]</text>
<text text-anchor="start" x="615" y="-124.3" font-family="Times,serif" font-size="14.00">   </text>
<text text-anchor="start" x="235" y="-105.3" font-family="monospace" font-size="14.00">555555556a18: </text>
<text text-anchor="start" x="355" y="-105.3" font-family="monospace" font-size="14.00">MOV RSI,RCX</text>
<text text-anchor="start" x="615" y="-105.3" font-family="Times,serif" font-size="14.00">   </text>
<text text-anchor="start" x="235" y="-86.3" font-family="monospace" font-size="14.00">555555556a1b: </text>
<text text-anchor="start" x="355" y="-86.3" font-family="monospace" font-size="14.00">MOV RDI,RAX</text>
<text text-anchor="start" x="615" y="-86.3" font-family="Times,serif" font-size="14.00">   </text>
<text text-anchor="start" x="235" y="-67.3" font-family="monospace" font-size="14.00">555555556a1e: </text>
<text text-anchor="start" x="355" y="-67.3" font-family="monospace" font-size="14.00">CALL mystery_construct</text>
<text text-anchor="start" x="615" y="-67.3" font-family="Times,serif" font-size="14.00">   </text>
<text text-anchor="start" x="235" y="-48.3" font-family="monospace" font-size="14.00">555555556a23: </text>
<text text-anchor="start" x="355" y="-48.3" font-family="monospace" font-size="14.00">NOP</text>
<text text-anchor="start" x="615" y="-48.3" font-family="Times,serif" font-size="14.00">   </text>
<text text-anchor="start" x="235" y="-29.3" font-family="monospace" font-size="14.00">555555556a24: </text>
<text text-anchor="start" x="355" y="-29.3" font-family="monospace" font-size="14.00">LEAVE</text>
<text text-anchor="start" x="615" y="-29.3" font-family="Times,serif" font-size="14.00">   </text>
<text text-anchor="start" x="235" y="-10.3" font-family="monospace" font-size="14.00">555555556a25: </text>
<text text-anchor="start" x="355" y="-10.3" font-family="monospace" font-size="14.00">RET</text>
<text text-anchor="start" x="615" y="-10.3" font-family="Times,serif" font-size="14.00">   </text>
<polygon fill="none" stroke="black" points="232,-4 232,-291 630,-291 630,-4 232,-4"/>
</g>
</g>
</svg>
