<?xml version="1.0" encoding="UTF-8" standalone="no"?>
<!DOCTYPE svg PUBLIC "-//W3C//DTD SVG 1.1//EN"
 "http://www.w3.org/Graphics/SVG/1.1/DTD/svg11.dtd">
<!-- Generated by graphviz version 2.44.1 (0)
 -->
<!-- Title: func 0x80485e5 Pages: 1 -->
<svg width="639pt" height="772pt"
 viewBox="0.00 0.00 639.00 772.10" xmlns="http://www.w3.org/2000/svg" xmlns:xlink="http://www.w3.org/1999/xlink">
<g id="graph0" class="graph" transform="scale(1 1) rotate(0) translate(4 768.1)">
<title>func 0x80485e5</title>
<polygon fill="white" stroke="transparent" points="-4,4 -4,-768.1 635,-768.1 635,4 -4,4"/>
<g id="clust1" class="cluster">
<title>cluster_01</title>
<polygon fill="none" stroke="black" points="8,-566.6 8,-708.6 214,-708.6 214,-566.6 8,-566.6"/>
<text text-anchor="middle" x="111" y="-693.4" font-family="Times,serif" font-size="14.00">Legend</text>
</g>
<!-- key -->
<g id="node1" class="node">
<title>key</title>
<text text-anchor="start" x="27" y="-659.9" font-family="Times,serif" font-size="14.00">Jump/Fallthrough</text>
<text text-anchor="start" x="101" y="-640.9" font-family="Times,serif" font-size="14.00">Call</text>
<text text-anchor="start" x="26" y="-621.9" font-family="Times,serif" font-size="14.00">Conditional Jump</text>
<text text-anchor="start" x="33" y="-602.9" font-family="Times,serif" font-size="14.00">Conditional Call</text>
<text text-anchor="start" x="93" y="-583.9" font-family="Times,serif" font-size="14.00">Other</text>
</g>
<!-- key2 -->
<g id="node2" class="node">
<title>key2</title>
<text text-anchor="start" x="177" y="-659.9" font-family="Times,serif" font-size="14.00"> </text>
<text text-anchor="start" x="177" y="-640.9" font-family="Times,serif" font-size="14.00"> </text>
<text text-anchor="start" x="177" y="-621.9" font-family="Times,serif" font-size="14.00"> </text>
<text text-anchor="start" x="177" y="-602.9" font-family="Times,serif" font-size="14.00"> </text>
<text text-anchor="start" x="177" y="-583.9" font-family="Times,serif" font-size="14.00"> </text>
</g>
<!-- key&#45;&gt;key2 -->
<g id="edge1" class="edge">
<title>key:e&#45;&gt;key2:w</title>
<path fill="none" stroke="gray" stroke-dasharray="5,2" d="M127,-664.1C143.97,-664.1 150.6,-664.1 163.7,-664.1"/>
<polygon fill="gray" stroke="gray" points="164,-667.6 174,-664.1 164,-660.6 164,-667.6"/>
</g>
<!-- key&#45;&gt;key2 -->
<g id="edge2" class="edge">
<title>key:e&#45;&gt;key2:w</title>
<path fill="none" stroke="#008b8b" stroke-dasharray="5,2" d="M127,-645.1C143.97,-645.1 150.6,-645.1 163.7,-645.1"/>
<polygon fill="#008b8b" stroke="#008b8b" points="164,-648.6 174,-645.1 164,-641.6 164,-648.6"/>
</g>
<!-- key&#45;&gt;key2 -->
<g id="edge3" class="edge">
<title>key:e&#45;&gt;key2:w</title>
<path fill="none" stroke="gray" d="M127,-625.1C143.97,-625.1 150.6,-625.1 163.7,-625.1"/>
<polygon fill="gray" stroke="gray" points="164,-628.6 174,-625.1 164,-621.6 164,-628.6"/>
</g>
<!-- key&#45;&gt;key2 -->
<g id="edge4" class="edge">
<title>key:e&#45;&gt;key2:w</title>
<path fill="none" stroke="#008b8b" d="M127,-606.1C143.97,-606.1 150.6,-606.1 163.7,-606.1"/>
<polygon fill="#008b8b" stroke="#008b8b" points="164,-609.6 174,-606.1 164,-602.6 164,-609.6"/>
</g>
<!-- key&#45;&gt;key2 -->
<g id="edge5" class="edge">
<title>key:e&#45;&gt;key2:w</title>
<path fill="none" stroke="gray" stroke-dasharray="1,5" d="M127,-587.1C143.97,-587.1 150.6,-587.1 163.7,-587.1"/>
<polygon fill="gray" stroke="gray" points="164,-590.6 174,-587.1 164,-583.6 164,-590.6"/>
</g>
<!-- bb_80485e5 -->
<g id="node3" class="node">
<title>bb_80485e5</title>
<text text-anchor="start" x="236" y="-745.9" font-family="monospace" font-size="14.00">80485e5: </text>
<text text-anchor="start" x="315" y="-745.9" font-family="monospace" font-size="14.00">PUSH EBP</text>
<text text-anchor="start" x="559" y="-745.9" font-family="Times,serif" font-size="14.00">   </text>
<text text-anchor="start" x="236" y="-726.9" font-family="monospace" font-size="14.00">80485e6: </text>
<text text-anchor="start" x="315" y="-726.9" font-family="monospace" font-size="14.00">MOV EBP,ESP</text>
<text text-anchor="start" x="559" y="-726.9" font-family="Times,serif" font-size="14.00">   </text>
<text text-anchor="start" x="236" y="-707.9" font-family="monospace" font-size="14.00">80485e8: </text>
<text text-anchor="start" x="315" y="-707.9" font-family="monospace" font-size="14.00">AND ESP,0xfffffff0</text>
<text text-anchor="start" x="559" y="-707.9" font-family="Times,serif" font-size="14.00">   </text>
<text text-anchor="start" x="236" y="-688.9" font-family="monospace" font-size="14.00">80485eb: </text>
<text text-anchor="start" x="315" y="-688.9" font-family="monospace" font-size="14.00">SUB ESP,0x20</text>
<text text-anchor="start" x="559" y="-688.9" font-family="Times,serif" font-size="14.00">   </text>
<text text-anchor="start" x="236" y="-669.9" font-family="monospace" font-size="14.00">80485ee: </text>
<text text-anchor="start" x="315" y="-669.9" font-family="monospace" font-size="14.00">MOV EAX,[0x0804a060]</text>
<text text-anchor="start" x="559" y="-669.9" font-family="Times,serif" font-size="14.00">   </text>
<text text-anchor="start" x="236" y="-650.9" font-family="monospace" font-size="14.00">80485f3: </text>
<text text-anchor="start" x="315" y="-650.9" font-family="monospace" font-size="14.00">MOV dword ptr [ESP + 0x4],0x0</text>
<text text-anchor="start" x="559" y="-650.9" font-family="Times,serif" font-size="14.00">   </text>
<text text-anchor="start" x="236" y="-631.9" font-family="monospace" font-size="14.00">80485fb: </text>
<text text-anchor="start" x="315" y="-631.9" font-family="monospace" font-size="14.00">MOV dword ptr [ESP],EAX</text>
<text text-anchor="start" x="559" y="-631.9" font-family="Times,serif" font-size="14.00">   </text>
<text text-anchor="start" x="236" y="-612.9" font-family="monospace" font-size="14.00">80485fe: </text>
<text text-anchor="start" x="315" y="-612.9" font-family="monospace" font-size="14.00">CALL setbuf</text>
<text text-anchor="start" x="559" y="-612.9" font-family="Times,serif" font-size="14.00">   </text>
<text text-anchor="start" x="236" y="-593.9" font-family="monospace" font-size="14.00">8048603: </text>
<text text-anchor="start" x="315" y="-593.9" font-family="monospace" font-size="14.00">MOV EAX,[0x0804a040]</text>
<text text-anchor="start" x="559" y="-593.9" font-family="Times,serif" font-size="14.00">   </text>
<text text-anchor="start" x="236" y="-574.9" font-family="monospace" font-size="14.00">8048608: </text>
<text text-anchor="start" x="315" y="-574.9" font-family="monospace" font-size="14.00">MOV dword ptr [ESP + 0x4],0x0</text>
<text text-anchor="start" x="559" y="-574.9" font-family="Times,serif" font-size="14.00">   </text>
<text text-anchor="start" x="236" y="-555.9" font-family="monospace" font-size="14.00">8048610: </text>
<text text-anchor="start" x="315" y="-555.9" font-family="monospace" font-size="14.00">MOV dword ptr [ESP],EAX</text>
<text text-anchor="start" x="559" y="-555.9" font-family="Times,serif" font-size="14.00">   </text>
<text text-anchor="start" x="236" y="-536.9" font-family="monospace" font-size="14.00">8048613: </text>
<text text-anchor="start" x="315" y="-536.9" font-family="monospace" font-size="14.00">CALL setbuf</text>
<text text-anchor="start" x="559" y="-536.9" font-family="Times,serif" font-size="14.00">   </text>
<text text-anchor="start" x="236" y="-517.9" font-family="monospace" font-size="14.00">8048618: </text>
<text text-anchor="start" x="315" y="-517.9" font-family="monospace" font-size="14.00">MOV dword ptr [ESP],0x8048730</text>
<text text-anchor="start" x="559" y="-517.9" font-family="Times,serif" font-size="14.00">   </text>
<text text-anchor="start" x="236" y="-498.9" font-family="monospace" font-size="14.00">804861f: </text>
<text text-anchor="start" x="315" y="-498.9" font-family="monospace" font-size="14.00">CALL puts</text>
<text text-anchor="start" x="559" y="-498.9" font-family="Times,serif" font-size="14.00">   </text>
<polygon fill="none" stroke="black" points="232.5,-492.1 232.5,-760.1 573.5,-760.1 573.5,-492.1 232.5,-492.1"/>
</g>
<!-- bb_8048624 -->
<g id="node4" class="node">
<title>bb_8048624</title>
<text text-anchor="start" x="236" y="-433.4" font-family="monospace" font-size="14.00">8048624: </text>
<text text-anchor="start" x="315" y="-433.4" font-family="monospace" font-size="14.00">MOV dword ptr [ESP + 0x1c],0x0</text>
<text text-anchor="start" x="608" y="-433.4" font-family="Times,serif" font-size="14.00">   </text>
<text text-anchor="start" x="236" y="-414.4" font-family="monospace" font-size="14.00">804862c: </text>
<text text-anchor="start" x="315" y="-414.4" font-family="monospace" font-size="14.00">MOV dword ptr [ESP],0x804874d</text>
<text text-anchor="start" x="608" y="-414.4" font-family="Times,serif" font-size="14.00">   </text>
<text text-anchor="start" x="236" y="-395.4" font-family="monospace" font-size="14.00">8048633: </text>
<text text-anchor="start" x="315" y="-395.4" font-family="monospace" font-size="14.00">CALL printf</text>
<text text-anchor="start" x="608" y="-395.4" font-family="Times,serif" font-size="14.00">   </text>
<text text-anchor="start" x="236" y="-376.4" font-family="monospace" font-size="14.00">8048638: </text>
<text text-anchor="start" x="315" y="-376.4" font-family="monospace" font-size="14.00">MOV dword ptr [ESP + 0x4],0x4</text>
<text text-anchor="start" x="608" y="-376.4" font-family="Times,serif" font-size="14.00">   </text>
<text text-anchor="start" x="236" y="-357.4" font-family="monospace" font-size="14.00">8048640: </text>
<text text-anchor="start" x="315" y="-357.4" font-family="monospace" font-size="14.00">LEA EAX,[ESP + 0x1c]</text>
<text text-anchor="start" x="608" y="-357.4" font-family="Times,serif" font-size="14.00">   </text>
<text text-anchor="start" x="236" y="-338.4" font-family="monospace" font-size="14.00">8048644: </text>
<text text-anchor="start" x="315" y="-338.4" font-family="monospace" font-size="14.00">MOV dword ptr [ESP],EAX</text>
<text text-anchor="start" x="608" y="-338.4" font-family="Times,serif" font-size="14.00">   </text>
<text text-anchor="start" x="236" y="-319.4" font-family="monospace" font-size="14.00">8048647: </text>
<text text-anchor="start" x="315" y="-319.4" font-family="monospace" font-size="14.00">CALL ReadBytes</text>
<text text-anchor="start" x="608" y="-319.4" font-family="Times,serif" font-size="14.00">   </text>
<text text-anchor="start" x="236" y="-300.4" font-family="monospace" font-size="14.00">804864c: </text>
<text text-anchor="start" x="315" y="-300.4" font-family="monospace" font-size="14.00">MOV dword ptr [ESP],0x8048765</text>
<text text-anchor="start" x="608" y="-300.4" font-family="Times,serif" font-size="14.00">   </text>
<text text-anchor="start" x="236" y="-281.4" font-family="monospace" font-size="14.00">8048653: </text>
<text text-anchor="start" x="315" y="-281.4" font-family="monospace" font-size="14.00">CALL printf</text>
<text text-anchor="start" x="608" y="-281.4" font-family="Times,serif" font-size="14.00">   </text>
<text text-anchor="start" x="236" y="-262.4" font-family="monospace" font-size="14.00">8048658: </text>
<text text-anchor="start" x="315" y="-262.4" font-family="monospace" font-size="14.00">MOV dword ptr [ESP],0x1</text>
<text text-anchor="start" x="608" y="-262.4" font-family="Times,serif" font-size="14.00">   </text>
<text text-anchor="start" x="236" y="-243.4" font-family="monospace" font-size="14.00">804865f: </text>
<text text-anchor="start" x="315" y="-243.4" font-family="monospace" font-size="14.00">CALL sleep</text>
<text text-anchor="start" x="608" y="-243.4" font-family="Times,serif" font-size="14.00">   </text>
<text text-anchor="start" x="236" y="-224.4" font-family="monospace" font-size="14.00">8048664: </text>
<text text-anchor="start" x="315" y="-224.4" font-family="monospace" font-size="14.00">MOV EAX,dword ptr [ESP + 0x1c]</text>
<text text-anchor="start" x="608" y="-224.4" font-family="Times,serif" font-size="14.00">   </text>
<text text-anchor="start" x="236" y="-205.4" font-family="monospace" font-size="14.00">8048668: </text>
<text text-anchor="start" x="315" y="-205.4" font-family="monospace" font-size="14.00">MOV dword ptr [ESP + 0x4],EAX</text>
<text text-anchor="start" x="608" y="-205.4" font-family="Times,serif" font-size="14.00">   </text>
<text text-anchor="start" x="236" y="-186.4" font-family="monospace" font-size="14.00">804866c: </text>
<text text-anchor="start" x="315" y="-186.4" font-family="monospace" font-size="14.00">MOV dword ptr [ESP],0x804a080</text>
<text text-anchor="start" x="608" y="-186.4" font-family="Times,serif" font-size="14.00">   </text>
<text text-anchor="start" x="236" y="-167.4" font-family="monospace" font-size="14.00">8048673: </text>
<text text-anchor="start" x="315" y="-167.4" font-family="monospace" font-size="14.00">CALL ReadBytes</text>
<text text-anchor="start" x="608" y="-167.4" font-family="Times,serif" font-size="14.00">   </text>
<text text-anchor="start" x="236" y="-148.4" font-family="monospace" font-size="14.00">8048678: </text>
<text text-anchor="start" x="315" y="-148.4" font-family="monospace" font-size="14.00">MOV EAX,dword ptr [ESP + 0x1c]</text>
<text text-anchor="start" x="608" y="-148.4" font-family="Times,serif" font-size="14.00">   </text>
<text text-anchor="start" x="236" y="-129.4" font-family="monospace" font-size="14.00">804867c: </text>
<text text-anchor="start" x="315" y="-129.4" font-family="monospace" font-size="14.00">MOV dword ptr [ESP + 0x8],EAX</text>
<text text-anchor="start" x="608" y="-129.4" font-family="Times,serif" font-size="14.00">   </text>
<text text-anchor="start" x="236" y="-110.4" font-family="monospace" font-size="14.00">8048680: </text>
<text text-anchor="start" x="315" y="-110.4" font-family="monospace" font-size="14.00">MOV dword ptr [ESP + 0x4],0x804a080</text>
<text text-anchor="start" x="608" y="-110.4" font-family="Times,serif" font-size="14.00">   </text>
<text text-anchor="start" x="236" y="-91.4" font-family="monospace" font-size="14.00">8048688: </text>
<text text-anchor="start" x="315" y="-91.4" font-family="monospace" font-size="14.00">MOV dword ptr [ESP],0x1</text>
<text text-anchor="start" x="608" y="-91.4" font-family="Times,serif" font-size="14.00">   </text>
<text text-anchor="start" x="236" y="-72.4" font-family="monospace" font-size="14.00">804868f: </text>
<text text-anchor="start" x="315" y="-72.4" font-family="monospace" font-size="14.00">CALL write</text>
<text text-anchor="start" x="608" y="-72.4" font-family="Times,serif" font-size="14.00">   </text>
<text text-anchor="start" x="236" y="-53.4" font-family="monospace" font-size="14.00">8048694: </text>
<text text-anchor="start" x="315" y="-53.4" font-family="monospace" font-size="14.00">JMP 0x08048624</text>
<text text-anchor="start" x="608" y="-53.4" font-family="Times,serif" font-size="14.00">   </text>
<polygon fill="none" stroke="black" points="233,-47.1 233,-448.1 623,-448.1 623,-47.1 233,-47.1"/>
</g>
<!-- bb_80485e5&#45;&gt;bb_8048624 -->
<g id="edge6" class="edge">
<title>bb_80485e5:insn_804861f&#45;&gt;bb_8048624:insn_8048624</title>
<g id="a_edge6"><a xlink:title="FALL_THROUGH">
<path fill="none" stroke="gray" stroke-dasharray="5,2" d="M273,-492.1C273,-476.18 273,-469.87 273,-457.71"/>
<polygon fill="gray" stroke="gray" points="276.5,-457.6 273,-447.6 269.5,-457.6 276.5,-457.6"/>
</a>
</g>
</g>
<!-- bb_8048624&#45;&gt;bb_8048624 -->
<g id="edge7" class="edge">
<title>bb_8048624:insn_8048694&#45;&gt;bb_8048624:insn_8048624</title>
<g id="a_edge7"><a xlink:title="UNCONDITIONAL_JUMP">
<path fill="none" stroke="gray" stroke-dasharray="5,2" d="M267.76,-47.51C218.22,37.59 207,28.44 207,-247.1 207,-512.95 217.44,-530.81 262.67,-455.31"/>
<polygon fill="gray" stroke="gray" points="265.69,-457.08 267.76,-446.69 259.66,-453.53 265.69,-457.08"/>
</a>
</g>
</g>
</g>
</svg>
