<?xml version="1.0" encoding="UTF-8" standalone="no"?>
<!DOCTYPE svg PUBLIC "-//W3C//DTD SVG 1.1//EN"
 "http://www.w3.org/Graphics/SVG/1.1/DTD/svg11.dtd">
<!-- Generated by graphviz version 2.44.1 (0)
 -->
<!-- Title: func 0x555555554ff0 Pages: 1 -->
<svg width="1705pt" height="2902pt"
 viewBox="0.00 0.00 1704.50 2902.00" xmlns="http://www.w3.org/2000/svg" xmlns:xlink="http://www.w3.org/1999/xlink">
<g id="graph0" class="graph" transform="scale(1 1) rotate(0) translate(4 2898)">
<title>func 0x555555554ff0</title>
<polygon fill="white" stroke="transparent" points="-4,4 -4,-2898 1700.5,-2898 1700.5,4 -4,4"/>
<g id="clust1" class="cluster">
<title>cluster_01</title>
<polygon fill="none" stroke="black" points="761,-2706 761,-2848 967,-2848 967,-2706 761,-2706"/>
<text text-anchor="middle" x="864" y="-2832.8" font-family="Times,serif" font-size="14.00">Legend</text>
</g>
<!-- key -->
<g id="node1" class="node">
<title>key</title>
<text text-anchor="start" x="780" y="-2799.3" font-family="Times,serif" font-size="14.00">Jump/Fallthrough</text>
<text text-anchor="start" x="854" y="-2780.3" font-family="Times,serif" font-size="14.00">Call</text>
<text text-anchor="start" x="779" y="-2761.3" font-family="Times,serif" font-size="14.00">Conditional Jump</text>
<text text-anchor="start" x="786" y="-2742.3" font-family="Times,serif" font-size="14.00">Conditional Call</text>
<text text-anchor="start" x="846" y="-2723.3" font-family="Times,serif" font-size="14.00">Other</text>
</g>
<!-- key2 -->
<g id="node2" class="node">
<title>key2</title>
<text text-anchor="start" x="930" y="-2799.3" font-family="Times,serif" font-size="14.00"> </text>
<text text-anchor="start" x="930" y="-2780.3" font-family="Times,serif" font-size="14.00"> </text>
<text text-anchor="start" x="930" y="-2761.3" font-family="Times,serif" font-size="14.00"> </text>
<text text-anchor="start" x="930" y="-2742.3" font-family="Times,serif" font-size="14.00"> </text>
<text text-anchor="start" x="930" y="-2723.3" font-family="Times,serif" font-size="14.00"> </text>
</g>
<!-- key&#45;&gt;key2 -->
<g id="edge1" class="edge">
<title>key:e&#45;&gt;key2:w</title>
<path fill="none" stroke="gray" stroke-dasharray="5,2" d="M880,-2803.5C896.97,-2803.5 903.6,-2803.5 916.7,-2803.5"/>
<polygon fill="gray" stroke="gray" points="917,-2807 927,-2803.5 917,-2800 917,-2807"/>
</g>
<!-- key&#45;&gt;key2 -->
<g id="edge2" class="edge">
<title>key:e&#45;&gt;key2:w</title>
<path fill="none" stroke="#008b8b" stroke-dasharray="5,2" d="M880,-2784.5C896.97,-2784.5 903.6,-2784.5 916.7,-2784.5"/>
<polygon fill="#008b8b" stroke="#008b8b" points="917,-2788 927,-2784.5 917,-2781 917,-2788"/>
</g>
<!-- key&#45;&gt;key2 -->
<g id="edge3" class="edge">
<title>key:e&#45;&gt;key2:w</title>
<path fill="none" stroke="gray" d="M880,-2764.5C896.97,-2764.5 903.6,-2764.5 916.7,-2764.5"/>
<polygon fill="gray" stroke="gray" points="917,-2768 927,-2764.5 917,-2761 917,-2768"/>
</g>
<!-- key&#45;&gt;key2 -->
<g id="edge4" class="edge">
<title>key:e&#45;&gt;key2:w</title>
<path fill="none" stroke="#008b8b" d="M880,-2745.5C896.97,-2745.5 903.6,-2745.5 916.7,-2745.5"/>
<polygon fill="#008b8b" stroke="#008b8b" points="917,-2749 927,-2745.5 917,-2742 917,-2749"/>
</g>
<!-- key&#45;&gt;key2 -->
<g id="edge5" class="edge">
<title>key:e&#45;&gt;key2:w</title>
<path fill="none" stroke="gray" stroke-dasharray="1,5" d="M880,-2726.5C896.97,-2726.5 903.6,-2726.5 916.7,-2726.5"/>
<polygon fill="gray" stroke="gray" points="917,-2730 927,-2726.5 917,-2723 917,-2730"/>
</g>
<!-- bb_555555554ff0 -->
<g id="node3" class="node">
<title>bb_555555554ff0</title>
<text text-anchor="start" x="988" y="-2875.3" font-family="monospace" font-size="14.00">555555554ff0: </text>
<text text-anchor="start" x="1108" y="-2875.3" font-family="monospace" font-size="14.00">PUSH R15</text>
<text text-anchor="start" x="1360" y="-2875.3" font-family="Times,serif" font-size="14.00">   </text>
<text text-anchor="start" x="988" y="-2856.3" font-family="monospace" font-size="14.00">555555554ff2: </text>
<text text-anchor="start" x="1108" y="-2856.3" font-family="monospace" font-size="14.00">PUSH R14</text>
<text text-anchor="start" x="1360" y="-2856.3" font-family="Times,serif" font-size="14.00">   </text>
<text text-anchor="start" x="988" y="-2837.3" font-family="monospace" font-size="14.00">555555554ff4: </text>
<text text-anchor="start" x="1108" y="-2837.3" font-family="monospace" font-size="14.00">PUSH R13</text>
<text text-anchor="start" x="1360" y="-2837.3" font-family="Times,serif" font-size="14.00">   </text>
<text text-anchor="start" x="988" y="-2818.3" font-family="monospace" font-size="14.00">555555554ff6: </text>
<text text-anchor="start" x="1108" y="-2818.3" font-family="monospace" font-size="14.00">PUSH R12</text>
<text text-anchor="start" x="1360" y="-2818.3" font-family="Times,serif" font-size="14.00">   </text>
<text text-anchor="start" x="988" y="-2799.3" font-family="monospace" font-size="14.00">555555554ff8: </text>
<text text-anchor="start" x="1108" y="-2799.3" font-family="monospace" font-size="14.00">PUSH RBP</text>
<text text-anchor="start" x="1360" y="-2799.3" font-family="Times,serif" font-size="14.00">   </text>
<text text-anchor="start" x="988" y="-2780.3" font-family="monospace" font-size="14.00">555555554ff9: </text>
<text text-anchor="start" x="1108" y="-2780.3" font-family="monospace" font-size="14.00">PUSH RBX</text>
<text text-anchor="start" x="1360" y="-2780.3" font-family="Times,serif" font-size="14.00">   </text>
<text text-anchor="start" x="988" y="-2761.3" font-family="monospace" font-size="14.00">555555554ffa: </text>
<text text-anchor="start" x="1108" y="-2761.3" font-family="monospace" font-size="14.00">SUB RSP,0x68</text>
<text text-anchor="start" x="1360" y="-2761.3" font-family="Times,serif" font-size="14.00">   </text>
<text text-anchor="start" x="988" y="-2742.3" font-family="monospace" font-size="14.00">555555554ffe: </text>
<text text-anchor="start" x="1108" y="-2742.3" font-family="monospace" font-size="14.00">MOV RAX,qword ptr FS:[0x28]</text>
<text text-anchor="start" x="1360" y="-2742.3" font-family="Times,serif" font-size="14.00">   </text>
<text text-anchor="start" x="988" y="-2723.3" font-family="monospace" font-size="14.00">555555555007: </text>
<text text-anchor="start" x="1108" y="-2723.3" font-family="monospace" font-size="14.00">MOV qword ptr [RSP + 0x58],RAX</text>
<text text-anchor="start" x="1360" y="-2723.3" font-family="Times,serif" font-size="14.00">   </text>
<text text-anchor="start" x="988" y="-2704.3" font-family="monospace" font-size="14.00">55555555500c: </text>
<text text-anchor="start" x="1108" y="-2704.3" font-family="monospace" font-size="14.00">XOR EAX,EAX</text>
<text text-anchor="start" x="1360" y="-2704.3" font-family="Times,serif" font-size="14.00">   </text>
<text text-anchor="start" x="988" y="-2685.3" font-family="monospace" font-size="14.00">55555555500e: </text>
<text text-anchor="start" x="1108" y="-2685.3" font-family="monospace" font-size="14.00">MOV RAX,0x7fffffffffffffff</text>
<text text-anchor="start" x="1360" y="-2685.3" font-family="Times,serif" font-size="14.00">   </text>
<text text-anchor="start" x="988" y="-2666.3" font-family="monospace" font-size="14.00">555555555018: </text>
<text text-anchor="start" x="1108" y="-2666.3" font-family="monospace" font-size="14.00">CMP qword ptr [RSI + 0x8],RAX</text>
<text text-anchor="start" x="1360" y="-2666.3" font-family="Times,serif" font-size="14.00">   </text>
<text text-anchor="start" x="988" y="-2647.3" font-family="monospace" font-size="14.00">55555555501c: </text>
<text text-anchor="start" x="1108" y="-2647.3" font-family="monospace" font-size="14.00">JZ 0x5555555551d0</text>
<text text-anchor="start" x="1360" y="-2647.3" font-family="Times,serif" font-size="14.00">   </text>
<polygon fill="none" stroke="black" points="985,-2641 985,-2890 1375,-2890 1375,-2641 985,-2641"/>
</g>
<!-- bb_555555555022 -->
<g id="node4" class="node">
<title>bb_555555555022</title>
<text text-anchor="start" x="760" y="-2582.3" font-family="monospace" font-size="14.00">555555555022: </text>
<text text-anchor="start" x="880" y="-2582.3" font-family="monospace" font-size="14.00">MOV RBX,RDI</text>
<text text-anchor="start" x="1165" y="-2582.3" font-family="Times,serif" font-size="14.00">   </text>
<text text-anchor="start" x="760" y="-2563.3" font-family="monospace" font-size="14.00">555555555025: </text>
<text text-anchor="start" x="880" y="-2563.3" font-family="monospace" font-size="14.00">MOV RDI,RSI</text>
<text text-anchor="start" x="1165" y="-2563.3" font-family="Times,serif" font-size="14.00">   </text>
<text text-anchor="start" x="760" y="-2544.3" font-family="monospace" font-size="14.00">555555555028: </text>
<text text-anchor="start" x="880" y="-2544.3" font-family="monospace" font-size="14.00">LEA RSI,[0x555555555ebc]</text>
<text text-anchor="start" x="1165" y="-2544.3" font-family="Times,serif" font-size="14.00">   </text>
<text text-anchor="start" x="760" y="-2525.3" font-family="monospace" font-size="14.00">55555555502f: </text>
<text text-anchor="start" x="880" y="-2525.3" font-family="monospace" font-size="14.00">MOV EDX,0x1</text>
<text text-anchor="start" x="1165" y="-2525.3" font-family="Times,serif" font-size="14.00">   </text>
<text text-anchor="start" x="760" y="-2506.3" font-family="monospace" font-size="14.00">555555555034: </text>
<text text-anchor="start" x="880" y="-2506.3" font-family="monospace" font-size="14.00">LEA RBP,[RSP + 0x10]</text>
<text text-anchor="start" x="1165" y="-2506.3" font-family="Times,serif" font-size="14.00">   </text>
<text text-anchor="start" x="760" y="-2487.3" font-family="monospace" font-size="14.00">555555555039: </text>
<text text-anchor="start" x="880" y="-2487.3" font-family="monospace" font-size="14.00">CALL _M_append</text>
<text text-anchor="start" x="1165" y="-2487.3" font-family="Times,serif" font-size="14.00">   </text>
<text text-anchor="start" x="760" y="-2468.3" font-family="monospace" font-size="14.00">55555555503e: </text>
<text text-anchor="start" x="880" y="-2468.3" font-family="monospace" font-size="14.00">MOV R12,RAX</text>
<text text-anchor="start" x="1165" y="-2468.3" font-family="Times,serif" font-size="14.00">   </text>
<text text-anchor="start" x="760" y="-2449.3" font-family="monospace" font-size="14.00">555555555041: </text>
<text text-anchor="start" x="880" y="-2449.3" font-family="monospace" font-size="14.00">CALL rand</text>
<text text-anchor="start" x="1165" y="-2449.3" font-family="Times,serif" font-size="14.00">   </text>
<text text-anchor="start" x="760" y="-2430.3" font-family="monospace" font-size="14.00">555555555046: </text>
<text text-anchor="start" x="880" y="-2430.3" font-family="monospace" font-size="14.00">MOV EDX,0x288df0cb</text>
<text text-anchor="start" x="1165" y="-2430.3" font-family="Times,serif" font-size="14.00">   </text>
<text text-anchor="start" x="760" y="-2411.3" font-family="monospace" font-size="14.00">55555555504b: </text>
<text text-anchor="start" x="880" y="-2411.3" font-family="monospace" font-size="14.00">MOV R8D,EAX</text>
<text text-anchor="start" x="1165" y="-2411.3" font-family="Times,serif" font-size="14.00">   </text>
<text text-anchor="start" x="760" y="-2392.3" font-family="monospace" font-size="14.00">55555555504e: </text>
<text text-anchor="start" x="880" y="-2392.3" font-family="monospace" font-size="14.00">MOV R13,qword ptr [0x555555756fd0]</text>
<text text-anchor="start" x="1165" y="-2392.3" font-family="Times,serif" font-size="14.00">   </text>
<text text-anchor="start" x="760" y="-2373.3" font-family="monospace" font-size="14.00">555555555055: </text>
<text text-anchor="start" x="880" y="-2373.3" font-family="monospace" font-size="14.00">IMUL EDX</text>
<text text-anchor="start" x="1165" y="-2373.3" font-family="Times,serif" font-size="14.00">   </text>
<text text-anchor="start" x="760" y="-2354.3" font-family="monospace" font-size="14.00">555555555057: </text>
<text text-anchor="start" x="880" y="-2354.3" font-family="monospace" font-size="14.00">MOV ECX,R8D</text>
<text text-anchor="start" x="1165" y="-2354.3" font-family="Times,serif" font-size="14.00">   </text>
<text text-anchor="start" x="760" y="-2335.3" font-family="monospace" font-size="14.00">55555555505a: </text>
<text text-anchor="start" x="880" y="-2335.3" font-family="monospace" font-size="14.00">MOV RDI,RBP</text>
<text text-anchor="start" x="1165" y="-2335.3" font-family="Times,serif" font-size="14.00">   </text>
<text text-anchor="start" x="760" y="-2316.3" font-family="monospace" font-size="14.00">55555555505d: </text>
<text text-anchor="start" x="880" y="-2316.3" font-family="monospace" font-size="14.00">SAR ECX,0x1f</text>
<text text-anchor="start" x="1165" y="-2316.3" font-family="Times,serif" font-size="14.00">   </text>
<text text-anchor="start" x="760" y="-2297.3" font-family="monospace" font-size="14.00">555555555060: </text>
<text text-anchor="start" x="880" y="-2297.3" font-family="monospace" font-size="14.00">XOR EAX,EAX</text>
<text text-anchor="start" x="1165" y="-2297.3" font-family="Times,serif" font-size="14.00">   </text>
<text text-anchor="start" x="760" y="-2278.3" font-family="monospace" font-size="14.00">555555555062: </text>
<text text-anchor="start" x="880" y="-2278.3" font-family="monospace" font-size="14.00">SAR EDX,0x4</text>
<text text-anchor="start" x="1165" y="-2278.3" font-family="Times,serif" font-size="14.00">   </text>
<text text-anchor="start" x="760" y="-2259.3" font-family="monospace" font-size="14.00">555555555065: </text>
<text text-anchor="start" x="880" y="-2259.3" font-family="monospace" font-size="14.00">SUB EDX,ECX</text>
<text text-anchor="start" x="1165" y="-2259.3" font-family="Times,serif" font-size="14.00">   </text>
<text text-anchor="start" x="760" y="-2240.3" font-family="monospace" font-size="14.00">555555555067: </text>
<text text-anchor="start" x="880" y="-2240.3" font-family="monospace" font-size="14.00">LEA RCX,[0x555555555ea4]</text>
<text text-anchor="start" x="1165" y="-2240.3" font-family="Times,serif" font-size="14.00">   </text>
<text text-anchor="start" x="760" y="-2221.3" font-family="monospace" font-size="14.00">55555555506e: </text>
<text text-anchor="start" x="880" y="-2221.3" font-family="monospace" font-size="14.00">IMUL ESI,EDX,0x65</text>
<text text-anchor="start" x="1165" y="-2221.3" font-family="Times,serif" font-size="14.00">   </text>
<text text-anchor="start" x="760" y="-2202.3" font-family="monospace" font-size="14.00">555555555071: </text>
<text text-anchor="start" x="880" y="-2202.3" font-family="monospace" font-size="14.00">MOV EDX,0x10</text>
<text text-anchor="start" x="1165" y="-2202.3" font-family="Times,serif" font-size="14.00">   </text>
<text text-anchor="start" x="760" y="-2183.3" font-family="monospace" font-size="14.00">555555555076: </text>
<text text-anchor="start" x="880" y="-2183.3" font-family="monospace" font-size="14.00">SUB R8D,ESI</text>
<text text-anchor="start" x="1165" y="-2183.3" font-family="Times,serif" font-size="14.00">   </text>
<text text-anchor="start" x="760" y="-2164.3" font-family="monospace" font-size="14.00">555555555079: </text>
<text text-anchor="start" x="880" y="-2164.3" font-family="monospace" font-size="14.00">MOV RSI,R13</text>
<text text-anchor="start" x="1165" y="-2164.3" font-family="Times,serif" font-size="14.00">   </text>
<text text-anchor="start" x="760" y="-2145.3" font-family="monospace" font-size="14.00">55555555507c: </text>
<text text-anchor="start" x="880" y="-2145.3" font-family="monospace" font-size="14.00">ADD R8D,0x1</text>
<text text-anchor="start" x="1165" y="-2145.3" font-family="Times,serif" font-size="14.00">   </text>
<text text-anchor="start" x="760" y="-2126.3" font-family="monospace" font-size="14.00">555555555080: </text>
<text text-anchor="start" x="880" y="-2126.3" font-family="monospace" font-size="14.00">CALL FUN_555555554e90</text>
<text text-anchor="start" x="1165" y="-2126.3" font-family="Times,serif" font-size="14.00">   </text>
<text text-anchor="start" x="760" y="-2107.3" font-family="monospace" font-size="14.00">555555555085: </text>
<text text-anchor="start" x="880" y="-2107.3" font-family="monospace" font-size="14.00">MOV RDX,qword ptr [RSP + 0x18]</text>
<text text-anchor="start" x="1165" y="-2107.3" font-family="Times,serif" font-size="14.00">   </text>
<text text-anchor="start" x="760" y="-2088.3" font-family="monospace" font-size="14.00">55555555508a: </text>
<text text-anchor="start" x="880" y="-2088.3" font-family="monospace" font-size="14.00">MOV RSI,qword ptr [RSP + 0x10]</text>
<text text-anchor="start" x="1165" y="-2088.3" font-family="Times,serif" font-size="14.00">   </text>
<text text-anchor="start" x="760" y="-2069.3" font-family="monospace" font-size="14.00">55555555508f: </text>
<text text-anchor="start" x="880" y="-2069.3" font-family="monospace" font-size="14.00">MOV RDI,R12</text>
<text text-anchor="start" x="1165" y="-2069.3" font-family="Times,serif" font-size="14.00">   </text>
<text text-anchor="start" x="760" y="-2050.3" font-family="monospace" font-size="14.00">555555555092: </text>
<text text-anchor="start" x="880" y="-2050.3" font-family="monospace" font-size="14.00">CALL _M_append</text>
<text text-anchor="start" x="1165" y="-2050.3" font-family="Times,serif" font-size="14.00">   </text>
<text text-anchor="start" x="760" y="-2031.3" font-family="monospace" font-size="14.00">555555555097: </text>
<text text-anchor="start" x="880" y="-2031.3" font-family="monospace" font-size="14.00">MOV R14,RAX</text>
<text text-anchor="start" x="1165" y="-2031.3" font-family="Times,serif" font-size="14.00">   </text>
<text text-anchor="start" x="760" y="-2012.3" font-family="monospace" font-size="14.00">55555555509a: </text>
<text text-anchor="start" x="880" y="-2012.3" font-family="monospace" font-size="14.00">LEA R12,[RSP + 0x30]</text>
<text text-anchor="start" x="1165" y="-2012.3" font-family="Times,serif" font-size="14.00">   </text>
<text text-anchor="start" x="760" y="-1993.3" font-family="monospace" font-size="14.00">55555555509f: </text>
<text text-anchor="start" x="880" y="-1993.3" font-family="monospace" font-size="14.00">CALL rand</text>
<text text-anchor="start" x="1165" y="-1993.3" font-family="Times,serif" font-size="14.00">   </text>
<text text-anchor="start" x="760" y="-1974.3" font-family="monospace" font-size="14.00">5555555550a4: </text>
<text text-anchor="start" x="880" y="-1974.3" font-family="monospace" font-size="14.00">MOV EDI,0x288df0cb</text>
<text text-anchor="start" x="1165" y="-1974.3" font-family="Times,serif" font-size="14.00">   </text>
<text text-anchor="start" x="760" y="-1955.3" font-family="monospace" font-size="14.00">5555555550a9: </text>
<text text-anchor="start" x="880" y="-1955.3" font-family="monospace" font-size="14.00">MOV R8D,EAX</text>
<text text-anchor="start" x="1165" y="-1955.3" font-family="Times,serif" font-size="14.00">   </text>
<text text-anchor="start" x="760" y="-1936.3" font-family="monospace" font-size="14.00">5555555550ac: </text>
<text text-anchor="start" x="880" y="-1936.3" font-family="monospace" font-size="14.00">LEA RCX,[0x555555555ea4]</text>
<text text-anchor="start" x="1165" y="-1936.3" font-family="Times,serif" font-size="14.00">   </text>
<text text-anchor="start" x="760" y="-1917.3" font-family="monospace" font-size="14.00">5555555550b3: </text>
<text text-anchor="start" x="880" y="-1917.3" font-family="monospace" font-size="14.00">IMUL EDI</text>
<text text-anchor="start" x="1165" y="-1917.3" font-family="Times,serif" font-size="14.00">   </text>
<text text-anchor="start" x="760" y="-1898.3" font-family="monospace" font-size="14.00">5555555550b5: </text>
<text text-anchor="start" x="880" y="-1898.3" font-family="monospace" font-size="14.00">MOV R9D,R8D</text>
<text text-anchor="start" x="1165" y="-1898.3" font-family="Times,serif" font-size="14.00">   </text>
<text text-anchor="start" x="760" y="-1879.3" font-family="monospace" font-size="14.00">5555555550b8: </text>
<text text-anchor="start" x="880" y="-1879.3" font-family="monospace" font-size="14.00">MOV RSI,R13</text>
<text text-anchor="start" x="1165" y="-1879.3" font-family="Times,serif" font-size="14.00">   </text>
<text text-anchor="start" x="760" y="-1860.3" font-family="monospace" font-size="14.00">5555555550bb: </text>
<text text-anchor="start" x="880" y="-1860.3" font-family="monospace" font-size="14.00">SAR R9D,0x1f</text>
<text text-anchor="start" x="1165" y="-1860.3" font-family="Times,serif" font-size="14.00">   </text>
<text text-anchor="start" x="760" y="-1841.3" font-family="monospace" font-size="14.00">5555555550bf: </text>
<text text-anchor="start" x="880" y="-1841.3" font-family="monospace" font-size="14.00">MOV RDI,R12</text>
<text text-anchor="start" x="1165" y="-1841.3" font-family="Times,serif" font-size="14.00">   </text>
<text text-anchor="start" x="760" y="-1822.3" font-family="monospace" font-size="14.00">5555555550c2: </text>
<text text-anchor="start" x="880" y="-1822.3" font-family="monospace" font-size="14.00">XOR EAX,EAX</text>
<text text-anchor="start" x="1165" y="-1822.3" font-family="Times,serif" font-size="14.00">   </text>
<text text-anchor="start" x="760" y="-1803.3" font-family="monospace" font-size="14.00">5555555550c4: </text>
<text text-anchor="start" x="880" y="-1803.3" font-family="monospace" font-size="14.00">SAR EDX,0x4</text>
<text text-anchor="start" x="1165" y="-1803.3" font-family="Times,serif" font-size="14.00">   </text>
<text text-anchor="start" x="760" y="-1784.3" font-family="monospace" font-size="14.00">5555555550c7: </text>
<text text-anchor="start" x="880" y="-1784.3" font-family="monospace" font-size="14.00">SUB EDX,R9D</text>
<text text-anchor="start" x="1165" y="-1784.3" font-family="Times,serif" font-size="14.00">   </text>
<text text-anchor="start" x="760" y="-1765.3" font-family="monospace" font-size="14.00">5555555550ca: </text>
<text text-anchor="start" x="880" y="-1765.3" font-family="monospace" font-size="14.00">IMUL R10D,EDX,0x65</text>
<text text-anchor="start" x="1165" y="-1765.3" font-family="Times,serif" font-size="14.00">   </text>
<text text-anchor="start" x="760" y="-1746.3" font-family="monospace" font-size="14.00">5555555550ce: </text>
<text text-anchor="start" x="880" y="-1746.3" font-family="monospace" font-size="14.00">MOV EDX,0x10</text>
<text text-anchor="start" x="1165" y="-1746.3" font-family="Times,serif" font-size="14.00">   </text>
<text text-anchor="start" x="760" y="-1727.3" font-family="monospace" font-size="14.00">5555555550d3: </text>
<text text-anchor="start" x="880" y="-1727.3" font-family="monospace" font-size="14.00">SUB R8D,R10D</text>
<text text-anchor="start" x="1165" y="-1727.3" font-family="Times,serif" font-size="14.00">   </text>
<text text-anchor="start" x="760" y="-1708.3" font-family="monospace" font-size="14.00">5555555550d6: </text>
<text text-anchor="start" x="880" y="-1708.3" font-family="monospace" font-size="14.00">ADD R8D,0x1</text>
<text text-anchor="start" x="1165" y="-1708.3" font-family="Times,serif" font-size="14.00">   </text>
<text text-anchor="start" x="760" y="-1689.3" font-family="monospace" font-size="14.00">5555555550da: </text>
<text text-anchor="start" x="880" y="-1689.3" font-family="monospace" font-size="14.00">CALL FUN_555555554e90</text>
<text text-anchor="start" x="1165" y="-1689.3" font-family="Times,serif" font-size="14.00">   </text>
<text text-anchor="start" x="760" y="-1670.3" font-family="monospace" font-size="14.00">5555555550df: </text>
<text text-anchor="start" x="880" y="-1670.3" font-family="monospace" font-size="14.00">MOV RDX,qword ptr [RSP + 0x38]</text>
<text text-anchor="start" x="1165" y="-1670.3" font-family="Times,serif" font-size="14.00">   </text>
<text text-anchor="start" x="760" y="-1651.3" font-family="monospace" font-size="14.00">5555555550e4: </text>
<text text-anchor="start" x="880" y="-1651.3" font-family="monospace" font-size="14.00">MOV RSI,qword ptr [RSP + 0x30]</text>
<text text-anchor="start" x="1165" y="-1651.3" font-family="Times,serif" font-size="14.00">   </text>
<text text-anchor="start" x="760" y="-1632.3" font-family="monospace" font-size="14.00">5555555550e9: </text>
<text text-anchor="start" x="880" y="-1632.3" font-family="monospace" font-size="14.00">MOV RDI,R14</text>
<text text-anchor="start" x="1165" y="-1632.3" font-family="Times,serif" font-size="14.00">   </text>
<text text-anchor="start" x="760" y="-1613.3" font-family="monospace" font-size="14.00">5555555550ec: </text>
<text text-anchor="start" x="880" y="-1613.3" font-family="monospace" font-size="14.00">CALL _M_append</text>
<text text-anchor="start" x="1165" y="-1613.3" font-family="Times,serif" font-size="14.00">   </text>
<text text-anchor="start" x="760" y="-1594.3" font-family="monospace" font-size="14.00">5555555550f1: </text>
<text text-anchor="start" x="880" y="-1594.3" font-family="monospace" font-size="14.00">MOV R13,qword ptr [RAX]</text>
<text text-anchor="start" x="1165" y="-1594.3" font-family="Times,serif" font-size="14.00">   </text>
<text text-anchor="start" x="760" y="-1575.3" font-family="monospace" font-size="14.00">5555555550f4: </text>
<text text-anchor="start" x="880" y="-1575.3" font-family="monospace" font-size="14.00">LEA R15,[RBX + 0x10]</text>
<text text-anchor="start" x="1165" y="-1575.3" font-family="Times,serif" font-size="14.00">   </text>
<text text-anchor="start" x="760" y="-1556.3" font-family="monospace" font-size="14.00">5555555550f8: </text>
<text text-anchor="start" x="880" y="-1556.3" font-family="monospace" font-size="14.00">MOV qword ptr [RBX],R15</text>
<text text-anchor="start" x="1165" y="-1556.3" font-family="Times,serif" font-size="14.00">   </text>
<text text-anchor="start" x="760" y="-1537.3" font-family="monospace" font-size="14.00">5555555550fb: </text>
<text text-anchor="start" x="880" y="-1537.3" font-family="monospace" font-size="14.00">TEST R13,R13</text>
<text text-anchor="start" x="1165" y="-1537.3" font-family="Times,serif" font-size="14.00">   </text>
<text text-anchor="start" x="760" y="-1518.3" font-family="monospace" font-size="14.00">5555555550fe: </text>
<text text-anchor="start" x="880" y="-1518.3" font-family="monospace" font-size="14.00">JZ 0x5555555551dc</text>
<text text-anchor="start" x="1165" y="-1518.3" font-family="Times,serif" font-size="14.00">   </text>
<polygon fill="none" stroke="black" points="756.5,-1512 756.5,-2597 1179.5,-2597 1179.5,-1512 756.5,-1512"/>
</g>
<!-- bb_555555554ff0&#45;&gt;bb_555555555022 -->
<g id="edge18" class="edge">
<title>bb_555555554ff0:insn_55555555501c&#45;&gt;bb_555555555022:insn_555555555022</title>
<g id="a_edge18"><a xlink:title="FALL_THROUGH">
<path fill="none" stroke="gray" stroke-dasharray="5,2" d="M1046,-2640.5C1046,-2541.13 834.61,-2688.02 818.92,-2606.92"/>
<polygon fill="gray" stroke="gray" points="822.36,-2606.15 818,-2596.5 815.39,-2606.77 822.36,-2606.15"/>
</a>
</g>
</g>
<!-- bb_5555555551d0 -->
<g id="node19" class="node">
<title>bb_5555555551d0</title>
<text text-anchor="start" x="1217" y="-2060.3" font-family="monospace" font-size="14.00">5555555551d0: </text>
<text text-anchor="start" x="1337" y="-2060.3" font-family="monospace" font-size="14.00">LEA RDI,[0x555555555ea7]</text>
<text text-anchor="start" x="1548" y="-2060.3" font-family="Times,serif" font-size="14.00">   </text>
<text text-anchor="start" x="1217" y="-2041.3" font-family="monospace" font-size="14.00">5555555551d7: </text>
<text text-anchor="start" x="1337" y="-2041.3" font-family="monospace" font-size="14.00">CALL __throw_length_error</text>
<text text-anchor="start" x="1548" y="-2041.3" font-family="Times,serif" font-size="14.00">   </text>
<polygon fill="none" stroke="black" points="1213.5,-2034.5 1213.5,-2074.5 1562.5,-2074.5 1562.5,-2034.5 1213.5,-2034.5"/>
</g>
<!-- bb_555555554ff0&#45;&gt;bb_5555555551d0 -->
<g id="edge17" class="edge">
<title>bb_555555554ff0:insn_55555555501c&#45;&gt;bb_5555555551d0:insn_5555555551d0</title>
<g id="a_edge17"><a xlink:title="CONDITIONAL_JUMP">
<path fill="none" stroke="gray" d="M1046,-2640.5C1046,-2571.56 1149.97,-2652.32 1196,-2601 1351.68,-2427.43 1277.26,-2314.46 1275.05,-2084.82"/>
<polygon fill="gray" stroke="gray" points="1278.55,-2084.48 1275,-2074.5 1271.55,-2084.52 1278.55,-2084.48"/>
</a>
</g>
</g>
<!-- bb_555555555104 -->
<g id="node5" class="node">
<title>bb_555555555104</title>
<text text-anchor="start" x="760" y="-1444.3" font-family="monospace" font-size="14.00">555555555104: </text>
<text text-anchor="start" x="880" y="-1444.3" font-family="monospace" font-size="14.00">MOV RDI,R13</text>
<text text-anchor="start" x="1124" y="-1444.3" font-family="Times,serif" font-size="14.00">   </text>
<text text-anchor="start" x="760" y="-1425.3" font-family="monospace" font-size="14.00">555555555107: </text>
<text text-anchor="start" x="880" y="-1425.3" font-family="monospace" font-size="14.00">CALL strlen</text>
<text text-anchor="start" x="1124" y="-1425.3" font-family="Times,serif" font-size="14.00">   </text>
<text text-anchor="start" x="760" y="-1406.3" font-family="monospace" font-size="14.00">55555555510c: </text>
<text text-anchor="start" x="880" y="-1406.3" font-family="monospace" font-size="14.00">CMP RAX,0xf</text>
<text text-anchor="start" x="1124" y="-1406.3" font-family="Times,serif" font-size="14.00">   </text>
<text text-anchor="start" x="760" y="-1387.3" font-family="monospace" font-size="14.00">555555555110: </text>
<text text-anchor="start" x="880" y="-1387.3" font-family="monospace" font-size="14.00">MOV R14,RAX</text>
<text text-anchor="start" x="1124" y="-1387.3" font-family="Times,serif" font-size="14.00">   </text>
<text text-anchor="start" x="760" y="-1368.3" font-family="monospace" font-size="14.00">555555555113: </text>
<text text-anchor="start" x="880" y="-1368.3" font-family="monospace" font-size="14.00">MOV qword ptr [RSP + 0x8],RAX</text>
<text text-anchor="start" x="1124" y="-1368.3" font-family="Times,serif" font-size="14.00">   </text>
<text text-anchor="start" x="760" y="-1349.3" font-family="monospace" font-size="14.00">555555555118: </text>
<text text-anchor="start" x="880" y="-1349.3" font-family="monospace" font-size="14.00">JA 0x555555555180</text>
<text text-anchor="start" x="1124" y="-1349.3" font-family="Times,serif" font-size="14.00">   </text>
<polygon fill="none" stroke="black" points="757,-1342.5 757,-1458.5 1139,-1458.5 1139,-1342.5 757,-1342.5"/>
</g>
<!-- bb_555555555022&#45;&gt;bb_555555555104 -->
<g id="edge31" class="edge">
<title>bb_555555555022:insn_5555555550fe&#45;&gt;bb_555555555104:insn_555555555104</title>
<g id="a_edge31"><a xlink:title="FALL_THROUGH">
<path fill="none" stroke="gray" stroke-dasharray="5,2" d="M818,-1511.5C818,-1491.81 818,-1484.46 818,-1468.82"/>
<polygon fill="gray" stroke="gray" points="821.5,-1468.5 818,-1458.5 814.5,-1468.5 821.5,-1468.5"/>
</a>
</g>
</g>
<!-- bb_5555555551dc -->
<g id="node20" class="node">
<title>bb_5555555551dc</title>
<text text-anchor="start" x="1197" y="-1453.3" font-family="monospace" font-size="14.00">5555555551dc: </text>
<text text-anchor="start" x="1317" y="-1453.3" font-family="monospace" font-size="14.00">LEA RDI,[0x555555555ec0]</text>
<text text-anchor="start" x="1569" y="-1453.3" font-family="Times,serif" font-size="14.00">   </text>
<text text-anchor="start" x="1197" y="-1434.3" font-family="monospace" font-size="14.00">5555555551e3: </text>
<text text-anchor="start" x="1317" y="-1434.3" font-family="monospace" font-size="14.00">CALL __throw_logic_error</text>
<text text-anchor="start" x="1569" y="-1434.3" font-family="Times,serif" font-size="14.00">   </text>
<text text-anchor="start" x="1197" y="-1415.3" font-family="monospace" font-size="14.00">5555555551e8: </text>
<text text-anchor="start" x="1317" y="-1415.3" font-family="monospace" font-size="14.00">MOV RDI,qword ptr [RSP + 0x30]</text>
<text text-anchor="start" x="1569" y="-1415.3" font-family="Times,serif" font-size="14.00">   </text>
<text text-anchor="start" x="1197" y="-1396.3" font-family="monospace" font-size="14.00">5555555551ed: </text>
<text text-anchor="start" x="1317" y="-1396.3" font-family="monospace" font-size="14.00">ADD R12,0x10</text>
<text text-anchor="start" x="1569" y="-1396.3" font-family="Times,serif" font-size="14.00">   </text>
<text text-anchor="start" x="1197" y="-1377.3" font-family="monospace" font-size="14.00">5555555551f1: </text>
<text text-anchor="start" x="1317" y="-1377.3" font-family="monospace" font-size="14.00">MOV RBX,RAX</text>
<text text-anchor="start" x="1569" y="-1377.3" font-family="Times,serif" font-size="14.00">   </text>
<text text-anchor="start" x="1197" y="-1358.3" font-family="monospace" font-size="14.00">5555555551f4: </text>
<text text-anchor="start" x="1317" y="-1358.3" font-family="monospace" font-size="14.00">CMP RDI,R12</text>
<text text-anchor="start" x="1569" y="-1358.3" font-family="Times,serif" font-size="14.00">   </text>
<text text-anchor="start" x="1197" y="-1339.3" font-family="monospace" font-size="14.00">5555555551f7: </text>
<text text-anchor="start" x="1317" y="-1339.3" font-family="monospace" font-size="14.00">JZ 0x5555555551fe</text>
<text text-anchor="start" x="1569" y="-1339.3" font-family="Times,serif" font-size="14.00">   </text>
<polygon fill="none" stroke="black" points="1194,-1333 1194,-1468 1584,-1468 1584,-1333 1194,-1333"/>
</g>
<!-- bb_555555555022&#45;&gt;bb_5555555551dc -->
<g id="edge30" class="edge">
<title>bb_555555555022:insn_5555555550fe&#45;&gt;bb_5555555551dc:insn_5555555551dc</title>
<g id="a_edge30"><a xlink:title="CONDITIONAL_JUMP">
<path fill="none" stroke="gray" d="M818,-1511.5C818,-1473.69 1119.28,-1481 1156,-1472 1169.72,-1468.64 1174.16,-1461.68 1184.07,-1458.8"/>
<polygon fill="gray" stroke="gray" points="1184.54,-1462.26 1194,-1457.5 1183.63,-1455.32 1184.54,-1462.26"/>
</a>
</g>
</g>
<!-- bb_55555555511a -->
<g id="node6" class="node">
<title>bb_55555555511a</title>
<text text-anchor="start" x="447" y="-1274.8" font-family="monospace" font-size="14.00">55555555511a: </text>
<text text-anchor="start" x="567" y="-1274.8" font-family="monospace" font-size="14.00">CMP RAX,0x1</text>
<text text-anchor="start" x="720" y="-1274.8" font-family="Times,serif" font-size="14.00">   </text>
<text text-anchor="start" x="447" y="-1255.8" font-family="monospace" font-size="14.00">55555555511e: </text>
<text text-anchor="start" x="567" y="-1255.8" font-family="monospace" font-size="14.00">JNZ 0x5555555551c0</text>
<text text-anchor="start" x="720" y="-1255.8" font-family="Times,serif" font-size="14.00">   </text>
<polygon fill="none" stroke="black" points="443.5,-1249 443.5,-1289 734.5,-1289 734.5,-1249 443.5,-1249"/>
</g>
<!-- bb_555555555104&#45;&gt;bb_55555555511a -->
<g id="edge27" class="edge">
<title>bb_555555555104:insn_555555555118&#45;&gt;bb_55555555511a:insn_55555555511a</title>
<g id="a_edge27"><a xlink:title="FALL_THROUGH">
<path fill="none" stroke="gray" stroke-dasharray="5,2" d="M757,-1352.5C702.75,-1352.5 528.02,-1347.43 507.06,-1298.93"/>
<polygon fill="gray" stroke="gray" points="510.46,-1298.08 505,-1289 503.61,-1299.5 510.46,-1298.08"/>
</a>
</g>
</g>
<!-- bb_555555555180 -->
<g id="node14" class="node">
<title>bb_555555555180</title>
<text text-anchor="start" x="789" y="-1068.8" font-family="monospace" font-size="14.00">555555555180: </text>
<text text-anchor="start" x="909" y="-1068.8" font-family="monospace" font-size="14.00">LEA RSI,[RSP + 0x8]</text>
<text text-anchor="start" x="1161" y="-1068.8" font-family="Times,serif" font-size="14.00">   </text>
<text text-anchor="start" x="789" y="-1049.8" font-family="monospace" font-size="14.00">555555555185: </text>
<text text-anchor="start" x="909" y="-1049.8" font-family="monospace" font-size="14.00">XOR EDX,EDX</text>
<text text-anchor="start" x="1161" y="-1049.8" font-family="Times,serif" font-size="14.00">   </text>
<text text-anchor="start" x="789" y="-1030.8" font-family="monospace" font-size="14.00">555555555187: </text>
<text text-anchor="start" x="909" y="-1030.8" font-family="monospace" font-size="14.00">MOV RDI,RBX</text>
<text text-anchor="start" x="1161" y="-1030.8" font-family="Times,serif" font-size="14.00">   </text>
<text text-anchor="start" x="789" y="-1011.8" font-family="monospace" font-size="14.00">55555555518a: </text>
<text text-anchor="start" x="909" y="-1011.8" font-family="monospace" font-size="14.00">CALL _M_create</text>
<text text-anchor="start" x="1161" y="-1011.8" font-family="Times,serif" font-size="14.00">   </text>
<text text-anchor="start" x="789" y="-992.8" font-family="monospace" font-size="14.00">55555555518f: </text>
<text text-anchor="start" x="909" y="-992.8" font-family="monospace" font-size="14.00">MOV R11,qword ptr [RSP + 0x8]</text>
<text text-anchor="start" x="1161" y="-992.8" font-family="Times,serif" font-size="14.00">   </text>
<text text-anchor="start" x="789" y="-973.8" font-family="monospace" font-size="14.00">555555555194: </text>
<text text-anchor="start" x="909" y="-973.8" font-family="monospace" font-size="14.00">MOV R15,RAX</text>
<text text-anchor="start" x="1161" y="-973.8" font-family="Times,serif" font-size="14.00">   </text>
<text text-anchor="start" x="789" y="-954.8" font-family="monospace" font-size="14.00">555555555197: </text>
<text text-anchor="start" x="909" y="-954.8" font-family="monospace" font-size="14.00">MOV qword ptr [RBX],RAX</text>
<text text-anchor="start" x="1161" y="-954.8" font-family="Times,serif" font-size="14.00">   </text>
<text text-anchor="start" x="789" y="-935.8" font-family="monospace" font-size="14.00">55555555519a: </text>
<text text-anchor="start" x="909" y="-935.8" font-family="monospace" font-size="14.00">MOV qword ptr [RBX + 0x10],R11</text>
<text text-anchor="start" x="1161" y="-935.8" font-family="Times,serif" font-size="14.00">   </text>
<polygon fill="none" stroke="black" points="786,-929 786,-1083 1176,-1083 1176,-929 786,-929"/>
</g>
<!-- bb_555555555104&#45;&gt;bb_555555555180 -->
<g id="edge26" class="edge">
<title>bb_555555555104:insn_555555555118&#45;&gt;bb_555555555180:insn_555555555180</title>
<g id="a_edge26"><a xlink:title="CONDITIONAL_JUMP">
<path fill="none" stroke="gray" d="M818,-1342.5C818,-1229.96 845.27,-1200.79 846.92,-1093.3"/>
<polygon fill="gray" stroke="gray" points="850.42,-1093.03 847,-1083 843.42,-1092.97 850.42,-1093.03"/>
</a>
</g>
</g>
<!-- bb_555555555124 -->
<g id="node7" class="node">
<title>bb_555555555124</title>
<text text-anchor="start" x="11" y="-823.3" font-family="monospace" font-size="14.00">555555555124: </text>
<text text-anchor="start" x="131" y="-823.3" font-family="monospace" font-size="14.00">MOVZX R8D,byte ptr [R13]</text>
<text text-anchor="start" x="375" y="-823.3" font-family="Times,serif" font-size="14.00">   </text>
<text text-anchor="start" x="11" y="-804.3" font-family="monospace" font-size="14.00">555555555129: </text>
<text text-anchor="start" x="131" y="-804.3" font-family="monospace" font-size="14.00">MOV byte ptr [RBX + 0x10],R8B</text>
<text text-anchor="start" x="375" y="-804.3" font-family="Times,serif" font-size="14.00">   </text>
<polygon fill="none" stroke="black" points="8,-797.5 8,-837.5 390,-837.5 390,-797.5 8,-797.5"/>
</g>
<!-- bb_55555555511a&#45;&gt;bb_555555555124 -->
<g id="edge14" class="edge">
<title>bb_55555555511a:insn_55555555511e&#45;&gt;bb_555555555124:insn_555555555124</title>
<g id="a_edge14"><a xlink:title="FALL_THROUGH">
<path fill="none" stroke="gray" stroke-dasharray="5,2" d="M444,-1259C196.69,-1259 72.42,-1092.88 69.07,-847.74"/>
<polygon fill="gray" stroke="gray" points="72.57,-847.48 69,-837.5 65.57,-847.52 72.57,-847.48"/>
</a>
</g>
</g>
<!-- bb_5555555551c0 -->
<g id="node16" class="node">
<title>bb_5555555551c0</title>
<text text-anchor="start" x="447" y="-1171.8" font-family="monospace" font-size="14.00">5555555551c0: </text>
<text text-anchor="start" x="567" y="-1171.8" font-family="monospace" font-size="14.00">TEST RAX,RAX</text>
<text text-anchor="start" x="712" y="-1171.8" font-family="Times,serif" font-size="14.00">   </text>
<text text-anchor="start" x="447" y="-1152.8" font-family="monospace" font-size="14.00">5555555551c3: </text>
<text text-anchor="start" x="567" y="-1152.8" font-family="monospace" font-size="14.00">JZ 0x55555555512d</text>
<text text-anchor="start" x="712" y="-1152.8" font-family="Times,serif" font-size="14.00">   </text>
<polygon fill="none" stroke="black" points="443.5,-1146 443.5,-1186 726.5,-1186 726.5,-1146 443.5,-1146"/>
</g>
<!-- bb_55555555511a&#45;&gt;bb_5555555551c0 -->
<g id="edge13" class="edge">
<title>bb_55555555511a:insn_55555555511e&#45;&gt;bb_5555555551c0:insn_5555555551c0</title>
<g id="a_edge13"><a xlink:title="CONDITIONAL_JUMP">
<path fill="none" stroke="gray" d="M505,-1249C505,-1224.72 505,-1216.23 505,-1196.14"/>
<polygon fill="gray" stroke="gray" points="508.5,-1196 505,-1186 501.5,-1196 508.5,-1196"/>
</a>
</g>
</g>
<!-- bb_55555555512d -->
<g id="node8" class="node">
<title>bb_55555555512d</title>
<text text-anchor="start" x="368" y="-691.8" font-family="monospace" font-size="14.00">55555555512d: </text>
<text text-anchor="start" x="488" y="-691.8" font-family="monospace" font-size="14.00">MOV qword ptr [RBX + 0x8],RAX</text>
<text text-anchor="start" x="757" y="-691.8" font-family="Times,serif" font-size="14.00">   </text>
<text text-anchor="start" x="368" y="-672.8" font-family="monospace" font-size="14.00">555555555131: </text>
<text text-anchor="start" x="488" y="-672.8" font-family="monospace" font-size="14.00">MOV byte ptr [R15 + RAX*0x1],0x0</text>
<text text-anchor="start" x="757" y="-672.8" font-family="Times,serif" font-size="14.00">   </text>
<text text-anchor="start" x="368" y="-653.8" font-family="monospace" font-size="14.00">555555555136: </text>
<text text-anchor="start" x="488" y="-653.8" font-family="monospace" font-size="14.00">ADD R12,0x10</text>
<text text-anchor="start" x="757" y="-653.8" font-family="Times,serif" font-size="14.00">   </text>
<text text-anchor="start" x="368" y="-634.8" font-family="monospace" font-size="14.00">55555555513a: </text>
<text text-anchor="start" x="488" y="-634.8" font-family="monospace" font-size="14.00">MOV RDI,qword ptr [RSP + 0x30]</text>
<text text-anchor="start" x="757" y="-634.8" font-family="Times,serif" font-size="14.00">   </text>
<text text-anchor="start" x="368" y="-615.8" font-family="monospace" font-size="14.00">55555555513f: </text>
<text text-anchor="start" x="488" y="-615.8" font-family="monospace" font-size="14.00">CMP RDI,R12</text>
<text text-anchor="start" x="757" y="-615.8" font-family="Times,serif" font-size="14.00">   </text>
<text text-anchor="start" x="368" y="-596.8" font-family="monospace" font-size="14.00">555555555142: </text>
<text text-anchor="start" x="488" y="-596.8" font-family="monospace" font-size="14.00">JZ 0x555555555149</text>
<text text-anchor="start" x="757" y="-596.8" font-family="Times,serif" font-size="14.00">   </text>
<polygon fill="none" stroke="black" points="364.5,-590 364.5,-706 771.5,-706 771.5,-590 364.5,-590"/>
</g>
<!-- bb_555555555124&#45;&gt;bb_55555555512d -->
<g id="edge28" class="edge">
<title>bb_555555555124:insn_555555555129&#45;&gt;bb_55555555512d:insn_55555555512d</title>
<g id="a_edge28"><a xlink:title="FALL_THROUGH">
<path fill="none" stroke="gray" stroke-dasharray="5,2" d="M69,-797.5C69,-731.09 275.57,-698.95 354.71,-696.19"/>
<polygon fill="gray" stroke="gray" points="355.07,-699.69 365,-696 354.94,-692.69 355.07,-699.69"/>
</a>
</g>
</g>
<!-- bb_555555555144 -->
<g id="node9" class="node">
<title>bb_555555555144</title>
<text text-anchor="start" x="227" y="-527.8" font-family="monospace" font-size="14.00">555555555144: </text>
<text text-anchor="start" x="347" y="-527.8" font-family="monospace" font-size="14.00">CALL operator.delete</text>
<text text-anchor="start" x="517" y="-527.8" font-family="Times,serif" font-size="14.00">   </text>
<polygon fill="none" stroke="black" points="224,-521.5 224,-542.5 532,-542.5 532,-521.5 224,-521.5"/>
</g>
<!-- bb_55555555512d&#45;&gt;bb_555555555144 -->
<g id="edge21" class="edge">
<title>bb_55555555512d:insn_555555555142&#45;&gt;bb_555555555144:insn_555555555144</title>
<g id="a_edge21"><a xlink:title="FALL_THROUGH">
<path fill="none" stroke="gray" stroke-dasharray="5,2" d="M365,-600C324.69,-600 290.97,-588.13 285.71,-552.21"/>
<polygon fill="gray" stroke="gray" points="289.19,-551.73 285,-542 282.2,-552.22 289.19,-551.73"/>
</a>
</g>
</g>
<!-- bb_555555555149 -->
<g id="node10" class="node">
<title>bb_555555555149</title>
<text text-anchor="start" x="368" y="-459.8" font-family="monospace" font-size="14.00">555555555149: </text>
<text text-anchor="start" x="488" y="-459.8" font-family="monospace" font-size="14.00">MOV RDI,qword ptr [RSP + 0x10]</text>
<text text-anchor="start" x="740" y="-459.8" font-family="Times,serif" font-size="14.00">   </text>
<text text-anchor="start" x="368" y="-440.8" font-family="monospace" font-size="14.00">55555555514e: </text>
<text text-anchor="start" x="488" y="-440.8" font-family="monospace" font-size="14.00">ADD RBP,0x10</text>
<text text-anchor="start" x="740" y="-440.8" font-family="Times,serif" font-size="14.00">   </text>
<text text-anchor="start" x="368" y="-421.8" font-family="monospace" font-size="14.00">555555555152: </text>
<text text-anchor="start" x="488" y="-421.8" font-family="monospace" font-size="14.00">CMP RDI,RBP</text>
<text text-anchor="start" x="740" y="-421.8" font-family="Times,serif" font-size="14.00">   </text>
<text text-anchor="start" x="368" y="-402.8" font-family="monospace" font-size="14.00">555555555155: </text>
<text text-anchor="start" x="488" y="-402.8" font-family="monospace" font-size="14.00">JZ 0x55555555515c</text>
<text text-anchor="start" x="740" y="-402.8" font-family="Times,serif" font-size="14.00">   </text>
<polygon fill="none" stroke="black" points="365,-396 365,-474 755,-474 755,-396 365,-396"/>
</g>
<!-- bb_55555555512d&#45;&gt;bb_555555555149 -->
<g id="edge20" class="edge">
<title>bb_55555555512d:insn_555555555142&#45;&gt;bb_555555555149:insn_555555555149</title>
<g id="a_edge20"><a xlink:title="CONDITIONAL_JUMP">
<path fill="none" stroke="gray" d="M426,-590C426,-532.52 515.22,-596.51 549,-550 558.4,-537.05 558.4,-526.95 549,-514 517.59,-470.76 438.27,-523.03 427.27,-484.4"/>
<polygon fill="gray" stroke="gray" points="430.69,-483.5 426,-474 423.74,-484.35 430.69,-483.5"/>
</a>
</g>
</g>
<!-- bb_555555555144&#45;&gt;bb_555555555149 -->
<g id="edge29" class="edge">
<title>bb_555555555144:insn_555555555144&#45;&gt;bb_555555555149:insn_555555555149</title>
<g id="a_edge29"><a xlink:title="FALL_THROUGH">
<path fill="none" stroke="gray" stroke-dasharray="5,2" d="M285,-521C285,-480.75 315.89,-466.27 354.92,-464.25"/>
<polygon fill="gray" stroke="gray" points="355.09,-467.75 365,-464 354.92,-460.75 355.09,-467.75"/>
</a>
</g>
</g>
<!-- bb_555555555157 -->
<g id="node11" class="node">
<title>bb_555555555157</title>
<text text-anchor="start" x="227" y="-333.8" font-family="monospace" font-size="14.00">555555555157: </text>
<text text-anchor="start" x="347" y="-333.8" font-family="monospace" font-size="14.00">CALL operator.delete</text>
<text text-anchor="start" x="517" y="-333.8" font-family="Times,serif" font-size="14.00">   </text>
<polygon fill="none" stroke="black" points="224,-327.5 224,-348.5 532,-348.5 532,-327.5 224,-327.5"/>
</g>
<!-- bb_555555555149&#45;&gt;bb_555555555157 -->
<g id="edge24" class="edge">
<title>bb_555555555149:insn_555555555155&#45;&gt;bb_555555555157:insn_555555555157</title>
<g id="a_edge24"><a xlink:title="FALL_THROUGH">
<path fill="none" stroke="gray" stroke-dasharray="5,2" d="M365,-406C324.69,-406 290.97,-394.13 285.71,-358.21"/>
<polygon fill="gray" stroke="gray" points="289.19,-357.73 285,-348 282.2,-358.22 289.19,-357.73"/>
</a>
</g>
</g>
<!-- bb_55555555515c -->
<g id="node12" class="node">
<title>bb_55555555515c</title>
<text text-anchor="start" x="368" y="-265.8" font-family="monospace" font-size="14.00">55555555515c: </text>
<text text-anchor="start" x="488" y="-265.8" font-family="monospace" font-size="14.00">MOV RCX,qword ptr [RSP + 0x58]</text>
<text text-anchor="start" x="740" y="-265.8" font-family="Times,serif" font-size="14.00">   </text>
<text text-anchor="start" x="368" y="-246.8" font-family="monospace" font-size="14.00">555555555161: </text>
<text text-anchor="start" x="488" y="-246.8" font-family="monospace" font-size="14.00">XOR RCX,qword ptr FS:[0x28]</text>
<text text-anchor="start" x="740" y="-246.8" font-family="Times,serif" font-size="14.00">   </text>
<text text-anchor="start" x="368" y="-227.8" font-family="monospace" font-size="14.00">55555555516a: </text>
<text text-anchor="start" x="488" y="-227.8" font-family="monospace" font-size="14.00">MOV RAX,RBX</text>
<text text-anchor="start" x="740" y="-227.8" font-family="Times,serif" font-size="14.00">   </text>
<text text-anchor="start" x="368" y="-208.8" font-family="monospace" font-size="14.00">55555555516d: </text>
<text text-anchor="start" x="488" y="-208.8" font-family="monospace" font-size="14.00">JNZ 0x5555555551cb</text>
<text text-anchor="start" x="740" y="-208.8" font-family="Times,serif" font-size="14.00">   </text>
<polygon fill="none" stroke="black" points="365,-202 365,-280 755,-280 755,-202 365,-202"/>
</g>
<!-- bb_555555555149&#45;&gt;bb_55555555515c -->
<g id="edge23" class="edge">
<title>bb_555555555149:insn_555555555155&#45;&gt;bb_55555555515c:insn_55555555515c</title>
<g id="a_edge23"><a xlink:title="CONDITIONAL_JUMP">
<path fill="none" stroke="gray" d="M426,-396C426,-338.52 515.22,-402.51 549,-356 558.4,-343.05 558.4,-332.95 549,-320 517.59,-276.76 438.27,-329.03 427.27,-290.4"/>
<polygon fill="gray" stroke="gray" points="430.69,-289.5 426,-280 423.74,-290.35 430.69,-289.5"/>
</a>
</g>
</g>
<!-- bb_555555555157&#45;&gt;bb_55555555515c -->
<g id="edge16" class="edge">
<title>bb_555555555157:insn_555555555157&#45;&gt;bb_55555555515c:insn_55555555515c</title>
<g id="a_edge16"><a xlink:title="FALL_THROUGH">
<path fill="none" stroke="gray" stroke-dasharray="5,2" d="M285,-327C285,-286.75 315.89,-272.27 354.92,-270.25"/>
<polygon fill="gray" stroke="gray" points="355.09,-273.75 365,-270 354.92,-266.75 355.09,-273.75"/>
</a>
</g>
</g>
<!-- bb_55555555516f -->
<g id="node13" class="node">
<title>bb_55555555516f</title>
<text text-anchor="start" x="230" y="-143.8" font-family="monospace" font-size="14.00">55555555516f: </text>
<text text-anchor="start" x="350" y="-143.8" font-family="monospace" font-size="14.00">ADD RSP,0x68</text>
<text text-anchor="start" x="454" y="-143.8" font-family="Times,serif" font-size="14.00">   </text>
<text text-anchor="start" x="230" y="-124.8" font-family="monospace" font-size="14.00">555555555173: </text>
<text text-anchor="start" x="350" y="-124.8" font-family="monospace" font-size="14.00">POP RBX</text>
<text text-anchor="start" x="454" y="-124.8" font-family="Times,serif" font-size="14.00">   </text>
<text text-anchor="start" x="230" y="-105.8" font-family="monospace" font-size="14.00">555555555174: </text>
<text text-anchor="start" x="350" y="-105.8" font-family="monospace" font-size="14.00">POP RBP</text>
<text text-anchor="start" x="454" y="-105.8" font-family="Times,serif" font-size="14.00">   </text>
<text text-anchor="start" x="230" y="-86.8" font-family="monospace" font-size="14.00">555555555175: </text>
<text text-anchor="start" x="350" y="-86.8" font-family="monospace" font-size="14.00">POP R12</text>
<text text-anchor="start" x="454" y="-86.8" font-family="Times,serif" font-size="14.00">   </text>
<text text-anchor="start" x="230" y="-67.8" font-family="monospace" font-size="14.00">555555555177: </text>
<text text-anchor="start" x="350" y="-67.8" font-family="monospace" font-size="14.00">POP R13</text>
<text text-anchor="start" x="454" y="-67.8" font-family="Times,serif" font-size="14.00">   </text>
<text text-anchor="start" x="230" y="-48.8" font-family="monospace" font-size="14.00">555555555179: </text>
<text text-anchor="start" x="350" y="-48.8" font-family="monospace" font-size="14.00">POP R14</text>
<text text-anchor="start" x="454" y="-48.8" font-family="Times,serif" font-size="14.00">   </text>
<text text-anchor="start" x="230" y="-29.8" font-family="monospace" font-size="14.00">55555555517b: </text>
<text text-anchor="start" x="350" y="-29.8" font-family="monospace" font-size="14.00">POP R15</text>
<text text-anchor="start" x="454" y="-29.8" font-family="Times,serif" font-size="14.00">   </text>
<text text-anchor="start" x="230" y="-10.8" font-family="monospace" font-size="14.00">55555555517d: </text>
<text text-anchor="start" x="350" y="-10.8" font-family="monospace" font-size="14.00">RET</text>
<text text-anchor="start" x="454" y="-10.8" font-family="Times,serif" font-size="14.00">   </text>
<polygon fill="none" stroke="black" points="227,-4 227,-158 469,-158 469,-4 227,-4"/>
</g>
<!-- bb_55555555515c&#45;&gt;bb_55555555516f -->
<g id="edge10" class="edge">
<title>bb_55555555515c:insn_55555555516d&#45;&gt;bb_55555555516f:insn_55555555516f</title>
<g id="a_edge10"><a xlink:title="FALL_THROUGH">
<path fill="none" stroke="gray" stroke-dasharray="5,2" d="M365,-212C326.79,-212 294.1,-201.81 288.76,-168.13"/>
<polygon fill="gray" stroke="gray" points="292.24,-167.71 288,-158 285.26,-168.23 292.24,-167.71"/>
</a>
</g>
</g>
<!-- bb_5555555551cb -->
<g id="node18" class="node">
<title>bb_5555555551cb</title>
<text text-anchor="start" x="506" y="-76.8" font-family="monospace" font-size="14.00">5555555551cb: </text>
<text text-anchor="start" x="626" y="-76.8" font-family="monospace" font-size="14.00">CALL __stack_chk_fail</text>
<text text-anchor="start" x="804" y="-76.8" font-family="Times,serif" font-size="14.00">   </text>
<polygon fill="none" stroke="black" points="503,-70.5 503,-91.5 819,-91.5 819,-70.5 503,-70.5"/>
</g>
<!-- bb_55555555515c&#45;&gt;bb_5555555551cb -->
<g id="edge9" class="edge">
<title>bb_55555555515c:insn_55555555516d&#45;&gt;bb_5555555551cb:insn_5555555551cb</title>
<g id="a_edge9"><a xlink:title="CONDITIONAL_JUMP">
<path fill="none" stroke="gray" d="M426,-202C426,-169.95 460.74,-181.73 486,-162 520.05,-135.39 557.61,-137.34 563.27,-101.08"/>
<polygon fill="gray" stroke="gray" points="566.77,-101.23 564,-91 559.79,-100.72 566.77,-101.23"/>
</a>
</g>
</g>
<!-- bb_55555555519e -->
<g id="node15" class="node">
<title>bb_55555555519e</title>
<text text-anchor="start" x="465" y="-870.3" font-family="monospace" font-size="14.00">55555555519e: </text>
<text text-anchor="start" x="585" y="-870.3" font-family="monospace" font-size="14.00">MOV RDI,R15</text>
<text text-anchor="start" x="829" y="-870.3" font-family="Times,serif" font-size="14.00">   </text>
<text text-anchor="start" x="465" y="-851.3" font-family="monospace" font-size="14.00">5555555551a1: </text>
<text text-anchor="start" x="585" y="-851.3" font-family="monospace" font-size="14.00">MOV RDX,R14</text>
<text text-anchor="start" x="829" y="-851.3" font-family="Times,serif" font-size="14.00">   </text>
<text text-anchor="start" x="465" y="-832.3" font-family="monospace" font-size="14.00">5555555551a4: </text>
<text text-anchor="start" x="585" y="-832.3" font-family="monospace" font-size="14.00">MOV RSI,R13</text>
<text text-anchor="start" x="829" y="-832.3" font-family="Times,serif" font-size="14.00">   </text>
<text text-anchor="start" x="465" y="-813.3" font-family="monospace" font-size="14.00">5555555551a7: </text>
<text text-anchor="start" x="585" y="-813.3" font-family="monospace" font-size="14.00">CALL memcpy</text>
<text text-anchor="start" x="829" y="-813.3" font-family="Times,serif" font-size="14.00">   </text>
<text text-anchor="start" x="465" y="-794.3" font-family="monospace" font-size="14.00">5555555551ac: </text>
<text text-anchor="start" x="585" y="-794.3" font-family="monospace" font-size="14.00">MOV RAX,qword ptr [RSP + 0x8]</text>
<text text-anchor="start" x="829" y="-794.3" font-family="Times,serif" font-size="14.00">   </text>
<text text-anchor="start" x="465" y="-775.3" font-family="monospace" font-size="14.00">5555555551b1: </text>
<text text-anchor="start" x="585" y="-775.3" font-family="monospace" font-size="14.00">MOV R15,qword ptr [RBX]</text>
<text text-anchor="start" x="829" y="-775.3" font-family="Times,serif" font-size="14.00">   </text>
<text text-anchor="start" x="465" y="-756.3" font-family="monospace" font-size="14.00">5555555551b4: </text>
<text text-anchor="start" x="585" y="-756.3" font-family="monospace" font-size="14.00">JMP 0x55555555512d</text>
<text text-anchor="start" x="829" y="-756.3" font-family="Times,serif" font-size="14.00">   </text>
<polygon fill="none" stroke="black" points="462,-750 462,-885 844,-885 844,-750 462,-750"/>
</g>
<!-- bb_555555555180&#45;&gt;bb_55555555519e -->
<g id="edge32" class="edge">
<title>bb_555555555180:insn_55555555519a&#45;&gt;bb_55555555519e:insn_55555555519e</title>
<g id="a_edge32"><a xlink:title="FALL_THROUGH">
<path fill="none" stroke="gray" stroke-dasharray="5,2" d="M786,-939C776.21,-939 777.91,-929.05 769,-925 721.9,-903.62 548.33,-935.15 525.49,-894.35"/>
<polygon fill="gray" stroke="gray" points="528.84,-893.34 523,-884.5 522.06,-895.05 528.84,-893.34"/>
</a>
</g>
</g>
<!-- bb_55555555519e&#45;&gt;bb_55555555512d -->
<g id="edge6" class="edge">
<title>bb_55555555519e:insn_5555555551b4&#45;&gt;bb_55555555512d:insn_55555555512d</title>
<g id="a_edge6"><a xlink:title="UNCONDITIONAL_JUMP">
<path fill="none" stroke="gray" stroke-dasharray="5,2" d="M523,-749.5C523,-706.31 441.96,-745.21 428.03,-716.13"/>
<polygon fill="gray" stroke="gray" points="431.39,-715.12 426,-706 424.53,-716.49 431.39,-715.12"/>
</a>
</g>
</g>
<!-- bb_5555555551c0&#45;&gt;bb_55555555512d -->
<g id="edge33" class="edge">
<title>bb_5555555551c0:insn_5555555551c3&#45;&gt;bb_55555555512d:insn_55555555512d</title>
<g id="a_edge33"><a xlink:title="CONDITIONAL_JUMP">
<path fill="none" stroke="gray" d="M444,-1156C396.5,-1156 422.96,-795.63 425.77,-716.23"/>
<polygon fill="gray" stroke="gray" points="429.27,-716.08 426,-706 422.27,-715.92 429.27,-716.08"/>
</a>
</g>
</g>
<!-- bb_5555555551c9 -->
<g id="node17" class="node">
<title>bb_5555555551c9</title>
<text text-anchor="start" x="465" y="-1001.8" font-family="monospace" font-size="14.00">5555555551c9: </text>
<text text-anchor="start" x="585" y="-1001.8" font-family="monospace" font-size="14.00">JMP 0x55555555519e</text>
<text text-anchor="start" x="738" y="-1001.8" font-family="Times,serif" font-size="14.00">   </text>
<polygon fill="none" stroke="black" points="461.5,-995.5 461.5,-1016.5 752.5,-1016.5 752.5,-995.5 461.5,-995.5"/>
</g>
<!-- bb_5555555551c0&#45;&gt;bb_5555555551c9 -->
<g id="edge34" class="edge">
<title>bb_5555555551c0:insn_5555555551c3&#45;&gt;bb_5555555551c9:insn_5555555551c9</title>
<g id="a_edge34"><a xlink:title="FALL_THROUGH">
<path fill="none" stroke="gray" stroke-dasharray="5,2" d="M505,-1146C505,-1091.2 520.89,-1076.11 522.81,-1026.12"/>
<polygon fill="gray" stroke="gray" points="526.31,-1026.06 523,-1016 519.31,-1025.93 526.31,-1026.06"/>
</a>
</g>
</g>
<!-- bb_5555555551c9&#45;&gt;bb_55555555519e -->
<g id="edge25" class="edge">
<title>bb_5555555551c9:insn_5555555551c9&#45;&gt;bb_55555555519e:insn_55555555519e</title>
<g id="a_edge25"><a xlink:title="UNCONDITIONAL_JUMP">
<path fill="none" stroke="gray" stroke-dasharray="5,2" d="M523,-995C523,-949.44 523,-935.58 523,-894.6"/>
<polygon fill="gray" stroke="gray" points="526.5,-894.5 523,-884.5 519.5,-894.5 526.5,-894.5"/>
</a>
</g>
</g>
<!-- bb_5555555551d0&#45;&gt;bb_5555555551dc -->
<g id="edge19" class="edge">
<title>bb_5555555551d0:insn_5555555551d7&#45;&gt;bb_5555555551dc:insn_5555555551dc</title>
<g id="a_edge19"><a xlink:title="FALL_THROUGH">
<path fill="none" stroke="gray" stroke-dasharray="5,2" d="M1275,-2034.5C1275,-1785.79 1255.54,-1721.41 1255.01,-1477.74"/>
<polygon fill="gray" stroke="gray" points="1258.51,-1477.5 1255,-1467.5 1251.51,-1477.5 1258.51,-1477.5"/>
</a>
</g>
</g>
<!-- bb_5555555551f9 -->
<g id="node21" class="node">
<title>bb_5555555551f9</title>
<text text-anchor="start" x="1056" y="-1264.8" font-family="monospace" font-size="14.00">5555555551f9: </text>
<text text-anchor="start" x="1176" y="-1264.8" font-family="monospace" font-size="14.00">CALL operator.delete</text>
<text text-anchor="start" x="1346" y="-1264.8" font-family="Times,serif" font-size="14.00">   </text>
<polygon fill="none" stroke="black" points="1053,-1258.5 1053,-1279.5 1361,-1279.5 1361,-1258.5 1053,-1258.5"/>
</g>
<!-- bb_5555555551dc&#45;&gt;bb_5555555551f9 -->
<g id="edge12" class="edge">
<title>bb_5555555551dc:insn_5555555551f7&#45;&gt;bb_5555555551f9:insn_5555555551f9</title>
<g id="a_edge12"><a xlink:title="FALL_THROUGH">
<path fill="none" stroke="gray" stroke-dasharray="5,2" d="M1194,-1342.5C1174.32,-1342.5 1128.61,-1311.82 1116.82,-1288.86"/>
<polygon fill="gray" stroke="gray" points="1120.11,-1287.65 1114,-1279 1113.38,-1289.58 1120.11,-1287.65"/>
</a>
</g>
</g>
<!-- bb_5555555551fe -->
<g id="node22" class="node">
<title>bb_5555555551fe</title>
<text text-anchor="start" x="1262" y="-1190.8" font-family="monospace" font-size="14.00">5555555551fe: </text>
<text text-anchor="start" x="1382" y="-1190.8" font-family="monospace" font-size="14.00">MOV RDI,qword ptr [RSP + 0x10]</text>
<text text-anchor="start" x="1634" y="-1190.8" font-family="Times,serif" font-size="14.00">   </text>
<text text-anchor="start" x="1262" y="-1171.8" font-family="monospace" font-size="14.00">555555555203: </text>
<text text-anchor="start" x="1382" y="-1171.8" font-family="monospace" font-size="14.00">ADD RBP,0x10</text>
<text text-anchor="start" x="1634" y="-1171.8" font-family="Times,serif" font-size="14.00">   </text>
<text text-anchor="start" x="1262" y="-1152.8" font-family="monospace" font-size="14.00">555555555207: </text>
<text text-anchor="start" x="1382" y="-1152.8" font-family="monospace" font-size="14.00">CMP RDI,RBP</text>
<text text-anchor="start" x="1634" y="-1152.8" font-family="Times,serif" font-size="14.00">   </text>
<text text-anchor="start" x="1262" y="-1133.8" font-family="monospace" font-size="14.00">55555555520a: </text>
<text text-anchor="start" x="1382" y="-1133.8" font-family="monospace" font-size="14.00">JZ 0x555555555211</text>
<text text-anchor="start" x="1634" y="-1133.8" font-family="Times,serif" font-size="14.00">   </text>
<polygon fill="none" stroke="black" points="1259,-1127 1259,-1205 1649,-1205 1649,-1127 1259,-1127"/>
</g>
<!-- bb_5555555551dc&#45;&gt;bb_5555555551fe -->
<g id="edge11" class="edge">
<title>bb_5555555551dc:insn_5555555551f7&#45;&gt;bb_5555555551fe:insn_5555555551fe</title>
<g id="a_edge11"><a xlink:title="CONDITIONAL_JUMP">
<path fill="none" stroke="gray" d="M1255,-1332.5C1255,-1275.08 1344.17,-1339.39 1378,-1293 1390.57,-1275.76 1387.92,-1263.89 1378,-1245 1365.38,-1220.96 1331.03,-1232.08 1322.13,-1215.04"/>
<polygon fill="gray" stroke="gray" points="1325.5,-1214.06 1320,-1205 1318.65,-1215.51 1325.5,-1214.06"/>
</a>
</g>
</g>
<!-- bb_5555555551f9&#45;&gt;bb_5555555551fe -->
<g id="edge15" class="edge">
<title>bb_5555555551f9:insn_5555555551f9&#45;&gt;bb_5555555551fe:insn_5555555551fe</title>
<g id="a_edge15"><a xlink:title="FALL_THROUGH">
<path fill="none" stroke="gray" stroke-dasharray="5,2" d="M1114,-1258C1114,-1225.75 1206.58,-1199.62 1248.95,-1195.55"/>
<polygon fill="gray" stroke="gray" points="1249.21,-1199.04 1259,-1195 1248.82,-1192.05 1249.21,-1199.04"/>
</a>
</g>
</g>
<!-- bb_55555555520c -->
<g id="node23" class="node">
<title>bb_55555555520c</title>
<text text-anchor="start" x="1252" y="-1001.8" font-family="monospace" font-size="14.00">55555555520c: </text>
<text text-anchor="start" x="1372" y="-1001.8" font-family="monospace" font-size="14.00">CALL operator.delete</text>
<text text-anchor="start" x="1542" y="-1001.8" font-family="Times,serif" font-size="14.00">   </text>
<polygon fill="none" stroke="black" points="1249,-995.5 1249,-1016.5 1557,-1016.5 1557,-995.5 1249,-995.5"/>
</g>
<!-- bb_5555555551fe&#45;&gt;bb_55555555520c -->
<g id="edge8" class="edge">
<title>bb_5555555551fe:insn_55555555520a&#45;&gt;bb_55555555520c:insn_55555555520c</title>
<g id="a_edge8"><a xlink:title="FALL_THROUGH">
<path fill="none" stroke="gray" stroke-dasharray="5,2" d="M1320,-1127C1320,-1081.05 1311.39,-1067.45 1310.15,-1026.18"/>
<polygon fill="gray" stroke="gray" points="1313.65,-1025.95 1310,-1016 1306.65,-1026.05 1313.65,-1025.95"/>
</a>
</g>
</g>
<!-- bb_555555555211 -->
<g id="node24" class="node">
<title>bb_555555555211</title>
<text text-anchor="start" x="1393" y="-823.3" font-family="monospace" font-size="14.00">555555555211: </text>
<text text-anchor="start" x="1513" y="-823.3" font-family="monospace" font-size="14.00">MOV RDI,RBX</text>
<text text-anchor="start" x="1674" y="-823.3" font-family="Times,serif" font-size="14.00">   </text>
<text text-anchor="start" x="1393" y="-804.3" font-family="monospace" font-size="14.00">555555555214: </text>
<text text-anchor="start" x="1513" y="-804.3" font-family="monospace" font-size="14.00">CALL _Unwind_Resume</text>
<text text-anchor="start" x="1674" y="-804.3" font-family="Times,serif" font-size="14.00">   </text>
<polygon fill="none" stroke="black" points="1389.5,-797.5 1389.5,-837.5 1688.5,-837.5 1688.5,-797.5 1389.5,-797.5"/>
</g>
<!-- bb_5555555551fe&#45;&gt;bb_555555555211 -->
<g id="edge7" class="edge">
<title>bb_5555555551fe:insn_55555555520a&#45;&gt;bb_555555555211:insn_555555555211</title>
<g id="a_edge7"><a xlink:title="CONDITIONAL_JUMP">
<path fill="none" stroke="gray" d="M1320,-1127C1320,-1069.86 1536.87,-1130.43 1574,-1087 1620.78,-1032.27 1607.01,-988.99 1574,-925 1544.93,-868.64 1460.91,-900.59 1451.8,-847.59"/>
<polygon fill="gray" stroke="gray" points="1455.28,-847.19 1451,-837.5 1448.3,-847.75 1455.28,-847.19"/>
</a>
</g>
</g>
<!-- bb_55555555520c&#45;&gt;bb_555555555211 -->
<g id="edge22" class="edge">
<title>bb_55555555520c:insn_55555555520c&#45;&gt;bb_555555555211:insn_555555555211</title>
<g id="a_edge22"><a xlink:title="FALL_THROUGH">
<path fill="none" stroke="gray" stroke-dasharray="5,2" d="M1310,-995C1310,-904.72 1440.2,-929.27 1450.37,-847.96"/>
<polygon fill="gray" stroke="gray" points="1453.89,-847.69 1451,-837.5 1446.91,-847.27 1453.89,-847.69"/>
</a>
</g>
</g>
</g>
</svg>
